
define(MAX_EDGES_PER_NODE, 4)
define(MAX_NODES, 5)
define(EDGE_BIT_SIZE, 16)
define(MAX_NODES_IN_BITS,8)
define(MAX_NODES_IN_BITS_ALL,255)
define(MAX_DISTANCE, 30000)
define(INDEX_SIZE, eval(8+1))
define(MAX_ITERATIONS,MAX_NODES)

//node - currentmindistance - which nodes connected too - shortest path node - ifinq
define(NODE_SIZE,eval(EDGE_BIT_SIZE+ MAX_NODES*MAX_NODES_IN_BITS+MAX_NODES_IN_BITS+1))

define(ALICE_OUTPUT_SIZE, eval(MAX_NODES_IN_BITS*MAX_NODES))



define(ALICE_INPUT_SIZE,eval(MAX_NODES_IN_BITS*2)) //2 bit per start/end
define(BOB_INPUT_SIZE,eval(MAX_EDGES_PER_NODE*MAX_NODES*(EDGE_BIT_SIZE+MAX_NODES_IN_BITS)))



defvar alicein := input.1{eval(ALICE_INPUT_SIZE+ALICE_OUTPUT_SIZE)};
defvar bobin := input.0{BOB_INPUT_SIZE};

Edges := 0{eval(MAX_NODES*MAX_EDGES_PER_NODE*EDGE_BIT_SIZE+MAX_EDGES_PER_NODE*EDGE_BIT_SIZE)};
realEdge := 0{eval(MAX_NODES*MAX_EDGES_PER_NODE*EDGE_BIT_SIZE)};
NodesConnections := 0{eval(MAX_NODES_IN_BITS*MAX_NODES*MAX_EDGES_PER_NODE)};
NodesInQueue := 0{eval(MAX_NODES+1)};
NodeValues := 0{eval((MAX_NODES+1)*EDGE_BIT_SIZE)};
NodeLinks := 0{eval(MAX_NODES_IN_BITS*MAX_NODES)};


mask := alicein{ALICE_INPUT_SIZE:eval(ALICE_OUTPUT_SIZE-1)};


for i from 0 to decr(eval(MAX_NODES*MAX_NODES_IN_BITS)) step MAX_NODES_IN_BITS
begin
	NodeLinks{i:eval(MAX_NODES_IN_BITS-1)} := MAX_NODES_IN_BITS_ALL{MAX_NODES_IN_BITS};
end

//array(NodeValues,EDGE_BIT_SIZE);


for i from 0 to decr(eval(MAX_NODES*MAX_EDGES_PER_NODE*EDGE_BIT_SIZE)) step EDGE_BIT_SIZE
begin
	Edges{i:eval(EDGE_BIT_SIZE-1)} := bobin{i:eval(EDGE_BIT_SIZE-1)};
end

for i from 0 to decr(eval(MAX_NODES*MAX_EDGES_PER_NODE*EDGE_BIT_SIZE))
begin
	realEdge{i} := Edges{i};
end

index:=0{INDEX_SIZE};

for i from 
eval(MAX_NODES*MAX_EDGES_PER_NODE*EDGE_BIT_SIZE) to decr(eval(MAX_NODES*MAX_EDGES_PER_NODE*(EDGE_BIT_SIZE+MAX_NODES_IN_BITS)))
step MAX_NODES_IN_BITS
begin

jindex:=0{INDEX_SIZE};
for j from 0 to decr(eval(MAX_NODES*MAX_EDGES_PER_NODE*(MAX_NODES_IN_BITS))) step MAX_NODES_IN_BITS
begin

	if jindex==index then
		NodesConnections{j:eval(MAX_NODES_IN_BITS-1)} := bobin{i:eval(MAX_NODES_IN_BITS-1)};
	end
	jindex:=jindex+1{INDEX_SIZE};
end

index:=index+1{INDEX_SIZE};
end



//init

endnode := alicein{MAX_NODES_IN_BITS:eval(MAX_NODES_IN_BITS-1)};
startnode :=alicein{0:eval(MAX_NODES_IN_BITS-1)};

jindex:=0{MAX_NODES_IN_BITS};
for j from 0 to decr(eval(EDGE_BIT_SIZE*(MAX_NODES+1))) step EDGE_BIT_SIZE
begin

	nodeindex:=0{MAX_NODES_IN_BITS};
	for i from 0 to decr(eval(MAX_NODES+1))
	begin
		both := 0{2};

		if jindex == nodeindex then
			both:= both+1{2};
			NodeValues{j:eval(EDGE_BIT_SIZE-1)} :=MAX_DISTANCE{EDGE_BIT_SIZE};
			NodesInQueue{i} := 0{1};
		end

		if nodeindex == startnode then
			both:= both+1{2};	
		end

		if both == 2{2} 
		then
			NodesInQueue{i} := 1{1};
			NodeValues{j:eval(EDGE_BIT_SIZE-1)} :=0{EDGE_BIT_SIZE};
		end

		nodeindex:= nodeindex + 1{MAX_NODES_IN_BITS};
	end
	jindex:= jindex + 1{MAX_NODES_IN_BITS};
end


//fix for last node form the compiler problem. However this prevents this node from being the start node
//NodeValues{eval((MAX_NODES-1)*EDGE_BIT_SIZE):eval(EDGE_BIT_SIZE-1)}:= MAX_DISTANCE{EDGE_BIT_SIZE};

//if endnode == eval(MAX_NODES-1){MAX_NODES_IN_BITS}
//then
//NodeValues{eval((MAX_NODES-1)*EDGE_BIT_SIZE):eval(EDGE_BIT_SIZE-1)}:= MAX_DISTANCE{EDGE_BIT_SIZE};
//end


//if endnode == eval(MAX_NODES)
//out_bob := NodeValues;


NodeSelected := MAX_NODES{MAX_NODES_IN_BITS};
done:=0{1};
connections := 0{eval(MAX_EDGES_PER_NODE*MAX_NODES_IN_BITS)};
weights := 0{eval(MAX_EDGES_PER_NODE*EDGE_BIT_SIZE)};
cweight:=0{EDGE_BIT_SIZE};
cconnection:=0{MAX_NODES_IN_BITS};
oldval:=0{EDGE_BIT_SIZE};
newval := 0{EDGE_BIT_SIZE};
jqindex:= 0{MAX_NODES_IN_BITS};
temp:= 0{MAX_NODES_IN_BITS};

cval := MAX_DISTANCE{EDGE_BIT_SIZE};


for TIMES from 0 to decr(MAX_ITERATIONS)
begin
//select node
	NodeSelected := MAX_NODES{MAX_NODES_IN_BITS};

	cval := MAX_DISTANCE{EDGE_BIT_SIZE};
	

	kindex:=0{MAX_NODES_IN_BITS};
	for k from 0 to decr(eval(EDGE_BIT_SIZE*MAX_NODES)) step EDGE_BIT_SIZE
	begin
		iindex:= 0{MAX_NODES_IN_BITS};
		for i from 0 to decr(MAX_NODES)
		begin
			both:=0{3};
		
			if cval > NodeValues{k:eval(EDGE_BIT_SIZE-1)} then
				both:=both+1{3};
			end

			if NodesInQueue{i}==1{1} then
				both:=both+1{3};
			end

			if kindex == iindex then
				both:=both+1{3};
			end

			if both == 3{3} then
				cval:=NodeValues{k:eval(EDGE_BIT_SIZE-1)};
				NodeSelected:=iindex;
			end
			iindex:=iindex+1{MAX_NODES_IN_BITS};
		end
		kindex:=kindex+1{MAX_NODES_IN_BITS};
	end

//if node == end - DONE!
	if NodeSelected == endnode then
		done :=1{1};
	end

//remove from queue
// for each neighbor v of u:                              // where v has not yet been 
//                                                                                 removed from Q.
//              alt := dist[u] + dist_between(u, v) ;
//              if alt < dist[v]:                                  // Relax (u,v,a)
//                  dist[v] := alt ;
//                  previous[v] := u ;
//                  decrease-key v in Q;


	connections := 0{eval(MAX_EDGES_PER_NODE*MAX_NODES_IN_BITS)};
	weights := 0{eval(MAX_EDGES_PER_NODE*EDGE_BIT_SIZE)};
	value := cval;

	iindex:= 0{MAX_NODES_IN_BITS};
	for i from 0 to decr(MAX_NODES)
	begin
		if NodeSelected == iindex then
			NodesInQueue{i} := 0{1};
		end
		iindex:=iindex+1{MAX_NODES_IN_BITS};		
	end

	iindex:= 0{MAX_NODES_IN_BITS};
	for i from 0 to decr(eval(MAX_NODES*MAX_EDGES_PER_NODE*EDGE_BIT_SIZE)) step eval(MAX_EDGES_PER_NODE*EDGE_BIT_SIZE)
	begin
		
		if iindex == NodeSelected
		then
			weights{0:eval(MAX_EDGES_PER_NODE*EDGE_BIT_SIZE-1)} := Edges{i:eval(MAX_EDGES_PER_NODE*EDGE_BIT_SIZE-1)};
		end
		iindex:=iindex+1{MAX_NODES_IN_BITS};		
	end

	iindex:= 0{MAX_NODES_IN_BITS};
	for i from 0 to decr(eval(MAX_NODES*MAX_EDGES_PER_NODE*MAX_NODES_IN_BITS)) step eval(MAX_EDGES_PER_NODE*MAX_NODES_IN_BITS)
	begin
		
		if iindex == NodeSelected then
			connections{0:eval(MAX_EDGES_PER_NODE*MAX_NODES_IN_BITS-1)}:= NodesConnections{i:eval(MAX_EDGES_PER_NODE*MAX_NODES_IN_BITS-1)};
		end
		iindex:=iindex+1{MAX_NODES_IN_BITS};		
	end


	iindex:= 0{MAX_NODES_IN_BITS};
	for i from 0 to decr(MAX_EDGES_PER_NODE)
	begin
		//temp:=15{MAX_NODES_IN_BITS};		

		//select one set
		jindex:= 0{MAX_NODES_IN_BITS};
		for j from 0 to decr(eval(MAX_EDGES_PER_NODE*EDGE_BIT_SIZE)) step eval(EDGE_BIT_SIZE)
		begin
			if jindex == iindex
			then
				cweight := weights{j:eval(EDGE_BIT_SIZE-1)};
			end
			jindex:=jindex+1{MAX_NODES_IN_BITS};		
		end		

		jxindex:= 0{MAX_NODES_IN_BITS};
		for jx from 0 to decr( eval(MAX_EDGES_PER_NODE*MAX_NODES_IN_BITS)) step eval(MAX_NODES_IN_BITS)
		begin
			if jxindex == iindex
			then
				cconnection := connections{jx:eval(MAX_NODES_IN_BITS-1)};
			end
			jxindex:=jxindex+1{MAX_NODES_IN_BITS};		
		end

		//if iindex == 0{MAX_NODES_IN_BITS} then
		//	cconnection := connections{4:eval(MAX_NODES_IN_BITS-1)};
		//end
		//if iindex == 1{MAX_NODES_IN_BITS} then
		//	cconnection := connections{0:eval(MAX_NODES_IN_BITS-1)};
		//end
		//if iindex == 2{MAX_NODES_IN_BITS} then
		//	cconnection := connections{12:eval(MAX_NODES_IN_BITS-1)};
		//end
		//if iindex == 3{MAX_NODES_IN_BITS} then
		//	cconnection := connections{8:eval(MAX_NODES_IN_BITS-1)};
		//end

//alt := dist[u] + dist_between(u, v) ;
		newval := value + cweight;


		oldval:=0{EDGE_BIT_SIZE};

		jindex:= 0{MAX_NODES_IN_BITS};
		for j from 0 to decr(eval(MAX_NODES*EDGE_BIT_SIZE)) step EDGE_BIT_SIZE
		begin
			if jindex == cconnection
			then
				oldval := NodeValues{j:eval(EDGE_BIT_SIZE-1)};
			end
			jindex:=jindex+1{MAX_NODES_IN_BITS};		
		end

		oldlink := 0{MAX_NODES_IN_BITS};
		jindex:= 0{MAX_NODES_IN_BITS};
		for j from 0 to decr(eval(MAX_NODES*MAX_NODES_IN_BITS)) step MAX_NODES_IN_BITS
		begin
			if jindex == cconnection then
				oldlink := NodeLinks{j:eval(MAX_NODES_IN_BITS-1)};
			end
			jindex:=jindex+1{MAX_NODES_IN_BITS};		
		end
	
		newlink := NodeSelected;

		change:= 1{1};
		if oldval < newval then
			newval := oldval;
			newlink := oldlink;
			change :=0{1};
		end		

		jindex:= 0{MAX_NODES_IN_BITS};
		for j from 0 to decr(eval(MAX_NODES*EDGE_BIT_SIZE)) step EDGE_BIT_SIZE
		begin

			if jindex == cconnection then
				temp := jindex;
				NodeValues{j:eval(EDGE_BIT_SIZE-1)} := newval;
			end
			jindex:=jindex+1{MAX_NODES_IN_BITS};		
		end
		jindex:= 0{MAX_NODES_IN_BITS};
		for j from 0 to decr(eval(MAX_NODES*MAX_NODES_IN_BITS)) step MAX_NODES_IN_BITS
		begin
			if jindex == cconnection then
				NodeLinks{j:eval(MAX_NODES_IN_BITS-1)} := newlink;
			end
			jindex:=jindex+1{MAX_NODES_IN_BITS};		
		end
	
		jindex:= 0{MAX_NODES_IN_BITS};
		for j from 0 to decr(eval(MAX_NODES)) 
		begin
			both := 0{2};
			if jindex == cconnection then
				both :=both+1{2};
			end

			if change == 1{1} then
				both :=both+1{2};
			end

			if both == 2{2} then
				NodesInQueue{j} := 1{1};
			end

			jindex:=jindex+1{MAX_NODES_IN_BITS};
		end


		//select other node
		// if distance < other distance

		//	update node?

		iindex:=iindex+1{MAX_NODES_IN_BITS};
	end	

end



Path := 0{eval(MAX_NODES_IN_BITS*MAX_NODES)};

for iii from 0 to decr(eval(MAX_NODES_IN_BITS*MAX_NODES))
begin
	Path{iii}:=1{1};
end

NodeToGet:=endnode;

jindex := 0{MAX_NODES_IN_BITS};
for j from 0 to decr(eval(MAX_NODES_IN_BITS*MAX_NODES)) step MAX_NODES_IN_BITS
begin
	kindex := 0{MAX_NODES_IN_BITS};

	gotit := 0{1};
	for k from 0 to decr(eval(MAX_NODES_IN_BITS*MAX_NODES)) step MAX_NODES_IN_BITS
	begin
		both :=0{2};
		if gotit==0{1} then
			both := both +1{2};
		end
		if kindex==NodeToGet then
			both := both +1{2};
		end
		if both==2{2} then
			NodeToGet := NodeLinks{k:eval(MAX_NODES_IN_BITS-1)};
			Path{j:eval(MAX_NODES_IN_BITS-1)}:=kindex;
			gotit := 1{1};
		end

		kindex := kindex+1{MAX_NODES_IN_BITS};
	end

	jindex:=jindex+1{MAX_NODES_IN_BITS};
end




//NodesInQueue{2} := 1{1};

out_alice := 0{eval(MAX_EDGES_PER_NODE*EDGE_BIT_SIZE)};
//out_alice := 0{MAX_NODES};
//out_alice := 0{eval(MAX_EDGES_PER_NODE*MAX_NODES_IN_BITS*MAX_NODES)};

//out_alice{0:eval(MAX_NODES_IN_BITS-1)} := NodeSelected;
//out_alice{0:4} := NodesInQueue;
//out_alice{0} := done;
//out_alice := weights;

out_alice := Path;




out_alice := out_alice^mask;
out_bob := 0{2};
output.1 := out_alice;
output.0 := out_bob;
