benja     6130  0.0  0.0  98628  1316 pts/1    R+   19:44   0:00 ./parser rsa-blind.cir.map 2.5 10000000 rsa-blind.cir.inputs rsa-blind.cir.stats rsa-blind.cir.t1 3 1
benja     6130  0.0  0.6 109452 12932 pts/1    R+   19:44   0:00 ./parser rsa-blind.cir.map 2.5 10000000 rsa-blind.cir.inputs rsa-blind.cir.stats rsa-blind.cir.t1 3 1
benja     6130  0.0  1.0 118032 22172 pts/1    R+   19:44   0:00 ./parser rsa-blind.cir.map 2.5 10000000 rsa-blind.cir.inputs rsa-blind.cir.stats rsa-blind.cir.t1 3 1
benja     6130  0.0  1.7 129780 35108 pts/1    R+   19:44   0:00 ./parser rsa-blind.cir.map 2.5 10000000 rsa-blind.cir.inputs rsa-blind.cir.stats rsa-blind.cir.t1 3 1
benja     6130  0.0  2.4 144564 50948 pts/1    R+   19:44   0:00 ./parser rsa-blind.cir.map 2.5 10000000 rsa-blind.cir.inputs rsa-blind.cir.stats rsa-blind.cir.t1 3 1
benja     6130  0.0  2.9 153144 60452 pts/1    R+   19:44   0:00 ./parser rsa-blind.cir.map 2.5 10000000 rsa-blind.cir.inputs rsa-blind.cir.stats rsa-blind.cir.t1 3 1
benja     6130  0.0  3.6 167136 75500 pts/1    R+   19:44   0:00 ./parser rsa-blind.cir.map 2.5 10000000 rsa-blind.cir.inputs rsa-blind.cir.stats rsa-blind.cir.t1 3 1
benja     6130 12.0  4.2 177300 86324 pts/1    R+   19:44   0:00 ./parser rsa-blind.cir.map 2.5 10000000 rsa-blind.cir.inputs rsa-blind.cir.stats rsa-blind.cir.t1 3 1
benja     6130 14.0  4.9 191556 101636 pts/1   R+   19:44   0:00 ./parser rsa-blind.cir.map 2.5 10000000 rsa-blind.cir.inputs rsa-blind.cir.stats rsa-blind.cir.t1 3 1
benja     6130 15.0  5.5 201716 112844 pts/1   R+   19:44   0:00 ./parser rsa-blind.cir.map 2.5 10000000 rsa-blind.cir.inputs rsa-blind.cir.stats rsa-blind.cir.t1 3 1
benja     6130 17.0  6.1 213332 125252 pts/1   R+   19:44   0:00 ./parser rsa-blind.cir.map 2.5 10000000 rsa-blind.cir.inputs rsa-blind.cir.stats rsa-blind.cir.t1 3 1
benja     6130 18.0  6.7 226532 139508 pts/1   R+   19:44   0:00 ./parser rsa-blind.cir.map 2.5 10000000 rsa-blind.cir.inputs rsa-blind.cir.stats rsa-blind.cir.t1 3 1
benja     6130 21.0  7.5 239864 154028 pts/1   R+   19:44   0:00 ./parser rsa-blind.cir.map 2.5 10000000 rsa-blind.cir.inputs rsa-blind.cir.stats rsa-blind.cir.t1 3 1
benja     6130 22.0  8.2 254252 169604 pts/1   R+   19:44   0:00 ./parser rsa-blind.cir.map 2.5 10000000 rsa-blind.cir.inputs rsa-blind.cir.stats rsa-blind.cir.t1 3 1
benja     6130 23.0  8.9 267320 183596 pts/1   R+   19:44   0:00 ./parser rsa-blind.cir.map 2.5 10000000 rsa-blind.cir.inputs rsa-blind.cir.stats rsa-blind.cir.t1 3 1
benja     6130 26.0  9.7 281708 199172 pts/1   R+   19:44   0:00 ./parser rsa-blind.cir.map 2.5 10000000 rsa-blind.cir.inputs rsa-blind.cir.stats rsa-blind.cir.t1 3 1
benja     6130 28.0 10.5 296888 215540 pts/1   R+   19:44   0:00 ./parser rsa-blind.cir.map 2.5 10000000 rsa-blind.cir.inputs rsa-blind.cir.stats rsa-blind.cir.t1 3 1
benja     6130 29.0 11.2 310352 230324 pts/1   R+   19:44   0:00 ./parser rsa-blind.cir.map 2.5 10000000 rsa-blind.cir.inputs rsa-blind.cir.stats rsa-blind.cir.t1 3 1
benja     6130 31.0 11.7 320912 241676 pts/1   R+   19:44   0:00 ./parser rsa-blind.cir.map 2.5 10000000 rsa-blind.cir.inputs rsa-blind.cir.stats rsa-blind.cir.t1 3 1
benja     6130 32.0 12.4 333716 255404 pts/1   R+   19:44   0:00 ./parser rsa-blind.cir.map 2.5 10000000 rsa-blind.cir.inputs rsa-blind.cir.stats rsa-blind.cir.t1 3 1
benja     6130 34.0 13.2 349160 272036 pts/1   R+   19:44   0:00 ./parser rsa-blind.cir.map 2.5 10000000 rsa-blind.cir.inputs rsa-blind.cir.stats rsa-blind.cir.t1 3 1
benja     6130 36.0 13.8 360116 283916 pts/1   R+   19:44   0:00 ./parser rsa-blind.cir.map 2.5 10000000 rsa-blind.cir.inputs rsa-blind.cir.stats rsa-blind.cir.t1 3 1
benja     6130 37.0 14.6 376080 301208 pts/1   R+   19:44   0:00 ./parser rsa-blind.cir.map 2.5 10000000 rsa-blind.cir.inputs rsa-blind.cir.stats rsa-blind.cir.t1 3 1
benja     6130 39.0 15.3 388752 314936 pts/1   R+   19:44   0:00 ./parser rsa-blind.cir.map 2.5 10000000 rsa-blind.cir.inputs rsa-blind.cir.stats rsa-blind.cir.t1 3 1
benja     6130 41.0 16.0 402344 329480 pts/1   R+   19:44   0:00 ./parser rsa-blind.cir.map 2.5 10000000 rsa-blind.cir.inputs rsa-blind.cir.stats rsa-blind.cir.t1 3 1
benja     6130 43.0 16.7 415676 344000 pts/1   R+   19:44   0:00 ./parser rsa-blind.cir.map 2.5 10000000 rsa-blind.cir.inputs rsa-blind.cir.stats rsa-blind.cir.t1 3 1
benja     6130 44.0 17.3 427160 356408 pts/1   R+   19:44   0:00 ./parser rsa-blind.cir.map 2.5 10000000 rsa-blind.cir.inputs rsa-blind.cir.stats rsa-blind.cir.t1 3 1
benja     6130 46.0 18.0 440888 371192 pts/1   R+   19:44   0:00 ./parser rsa-blind.cir.map 2.5 10000000 rsa-blind.cir.inputs rsa-blind.cir.stats rsa-blind.cir.t1 3 1
benja     6130 48.0 18.6 452372 383600 pts/1   R+   19:44   0:00 ./parser rsa-blind.cir.map 2.5 10000000 rsa-blind.cir.inputs rsa-blind.cir.stats rsa-blind.cir.t1 3 1
benja     6130 49.0 19.4 467024 399440 pts/1   R+   19:44   0:00 ./parser rsa-blind.cir.map 2.5 10000000 rsa-blind.cir.inputs rsa-blind.cir.stats rsa-blind.cir.t1 3 1
benja     6130 51.0 20.1 1031612 414352 pts/1  R+   19:44   0:00 ./parser rsa-blind.cir.map 2.5 10000000 rsa-blind.cir.inputs rsa-blind.cir.stats rsa-blind.cir.t1 3 1
benja     6130 52.0 20.7 1031744 425888 pts/1  R+   19:44   0:00 ./parser rsa-blind.cir.map 2.5 10000000 rsa-blind.cir.inputs rsa-blind.cir.stats rsa-blind.cir.t1 3 1
benja     6130 54.0 21.4 1032008 440460 pts/1  R+   19:44   0:00 ./parser rsa-blind.cir.map 2.5 10000000 rsa-blind.cir.inputs rsa-blind.cir.stats rsa-blind.cir.t1 3 1
benja     6130 55.0 22.0 1032140 452984 pts/1  R+   19:44   0:00 ./parser rsa-blind.cir.map 2.5 10000000 rsa-blind.cir.inputs rsa-blind.cir.stats rsa-blind.cir.t1 3 1
benja     6130 57.0 22.8 1032272 468308 pts/1  R+   19:44   0:00 ./parser rsa-blind.cir.map 2.5 10000000 rsa-blind.cir.inputs rsa-blind.cir.stats rsa-blind.cir.t1 3 1
benja     6130 59.0 23.6 1032536 485296 pts/1  R+   19:44   0:00 ./parser rsa-blind.cir.map 2.5 10000000 rsa-blind.cir.inputs rsa-blind.cir.stats rsa-blind.cir.t1 3 1
benja     6130 60.0 24.3 1032800 499440 pts/1  R+   19:44   0:00 ./parser rsa-blind.cir.map 2.5 10000000 rsa-blind.cir.inputs rsa-blind.cir.stats rsa-blind.cir.t1 3 1
benja     6130 62.0 24.9 1033064 512684 pts/1  R+   19:44   0:00 ./parser rsa-blind.cir.map 2.5 10000000 rsa-blind.cir.inputs rsa-blind.cir.stats rsa-blind.cir.t1 3 1
benja     6130 64.0 25.6 1033328 526196 pts/1  R+   19:44   0:00 ./parser rsa-blind.cir.map 2.5 10000000 rsa-blind.cir.inputs rsa-blind.cir.stats rsa-blind.cir.t1 3 1
benja     6130 32.5 26.2 1033592 537576 pts/1  R+   19:44   0:00 ./parser rsa-blind.cir.map 2.5 10000000 rsa-blind.cir.inputs rsa-blind.cir.stats rsa-blind.cir.t1 3 1
benja     6130 33.0 26.5 1033856 545676 pts/1  R+   19:44   0:00 ./parser rsa-blind.cir.map 2.5 10000000 rsa-blind.cir.inputs rsa-blind.cir.stats rsa-blind.cir.t1 3 1
benja     6130 34.0 27.1 1034120 556272 pts/1  R+   19:44   0:00 ./parser rsa-blind.cir.map 2.5 10000000 rsa-blind.cir.inputs rsa-blind.cir.stats rsa-blind.cir.t1 3 1
benja     6130 35.0 27.6 1034516 566540 pts/1  R+   19:44   0:00 ./parser rsa-blind.cir.map 2.5 10000000 rsa-blind.cir.inputs rsa-blind.cir.stats rsa-blind.cir.t1 3 1
benja     6130 35.5 27.9 1034648 572748 pts/1  R+   19:44   0:00 ./parser rsa-blind.cir.map 2.5 10000000 rsa-blind.cir.inputs rsa-blind.cir.stats rsa-blind.cir.t1 3 1
benja     6130 36.5 28.3 1035044 580748 pts/1  R+   19:44   0:00 ./parser rsa-blind.cir.map 2.5 10000000 rsa-blind.cir.inputs rsa-blind.cir.stats rsa-blind.cir.t1 3 1
benja     6130 37.0 28.6 1035308 587560 pts/1  R+   19:44   0:00 ./parser rsa-blind.cir.map 2.5 10000000 rsa-blind.cir.inputs rsa-blind.cir.stats rsa-blind.cir.t1 3 1
benja     6130 37.5 28.9 1035440 593536 pts/1  R+   19:44   0:00 ./parser rsa-blind.cir.map 2.5 10000000 rsa-blind.cir.inputs rsa-blind.cir.stats rsa-blind.cir.t1 3 1
benja     6130 38.0 29.2 1035704 600136 pts/1  R+   19:44   0:00 ./parser rsa-blind.cir.map 2.5 10000000 rsa-blind.cir.inputs rsa-blind.cir.stats rsa-blind.cir.t1 3 1
benja     6130 39.0 29.5 1035968 606916 pts/1  R+   19:44   0:00 ./parser rsa-blind.cir.map 2.5 10000000 rsa-blind.cir.inputs rsa-blind.cir.stats rsa-blind.cir.t1 3 1
benja     6130 40.0 29.8 1036496 612348 pts/1  R+   19:44   0:00 ./parser rsa-blind.cir.map 2.5 10000000 rsa-blind.cir.inputs rsa-blind.cir.stats rsa-blind.cir.t1 3 1
benja     6130 40.5 30.1 1037024 618612 pts/1  R+   19:44   0:00 ./parser rsa-blind.cir.map 2.5 10000000 rsa-blind.cir.inputs rsa-blind.cir.stats rsa-blind.cir.t1 3 1
benja     6130 41.0 30.4 1037420 624744 pts/1  R+   19:44   0:00 ./parser rsa-blind.cir.map 2.5 10000000 rsa-blind.cir.inputs rsa-blind.cir.stats rsa-blind.cir.t1 3 1
benja     6130 42.5 30.7 1037948 630104 pts/1  R+   19:44   0:00 ./parser rsa-blind.cir.map 2.5 10000000 rsa-blind.cir.inputs rsa-blind.cir.stats rsa-blind.cir.t1 3 1
benja     6130 43.5 30.8 1038344 633560 pts/1  R+   19:44   0:00 ./parser rsa-blind.cir.map 2.5 10000000 rsa-blind.cir.inputs rsa-blind.cir.stats rsa-blind.cir.t1 3 1
benja     6130 44.0 31.0 1038740 637732 pts/1  R+   19:44   0:00 ./parser rsa-blind.cir.map 2.5 10000000 rsa-blind.cir.inputs rsa-blind.cir.stats rsa-blind.cir.t1 3 1
benja     6130 44.5 31.2 1039136 641460 pts/1  R+   19:44   0:00 ./parser rsa-blind.cir.map 2.5 10000000 rsa-blind.cir.inputs rsa-blind.cir.stats rsa-blind.cir.t1 3 1
benja     6130 45.5 31.5 1039664 646944 pts/1  R+   19:44   0:00 ./parser rsa-blind.cir.map 2.5 10000000 rsa-blind.cir.inputs rsa-blind.cir.stats rsa-blind.cir.t1 3 1
benja     6130 46.5 31.6 1039928 649000 pts/1  R+   19:44   0:00 ./parser rsa-blind.cir.map 2.5 10000000 rsa-blind.cir.inputs rsa-blind.cir.stats rsa-blind.cir.t1 3 1
benja     6130 47.5 31.7 1040588 652132 pts/1  R+   19:44   0:00 ./parser rsa-blind.cir.map 2.5 10000000 rsa-blind.cir.inputs rsa-blind.cir.stats rsa-blind.cir.t1 3 1
benja     6130 48.0 31.9 1040984 655056 pts/1  R+   19:44   0:00 ./parser rsa-blind.cir.map 2.5 10000000 rsa-blind.cir.inputs rsa-blind.cir.stats rsa-blind.cir.t1 3 1
benja     6130 48.5 32.0 1041380 657480 pts/1  R+   19:44   0:00 ./parser rsa-blind.cir.map 2.5 10000000 rsa-blind.cir.inputs rsa-blind.cir.stats rsa-blind.cir.t1 3 1
benja     6130 49.5 32.1 1041908 660608 pts/1  R+   19:44   0:00 ./parser rsa-blind.cir.map 2.5 10000000 rsa-blind.cir.inputs rsa-blind.cir.stats rsa-blind.cir.t1 3 1
benja     6130 50.5 32.3 1042304 664164 pts/1  R+   19:44   0:01 ./parser rsa-blind.cir.map 2.5 10000000 rsa-blind.cir.inputs rsa-blind.cir.stats rsa-blind.cir.t1 3 1
benja     6130 51.0 32.4 1042832 666424 pts/1  R+   19:44   0:01 ./parser rsa-blind.cir.map 2.5 10000000 rsa-blind.cir.inputs rsa-blind.cir.stats rsa-blind.cir.t1 3 1
benja     6130 51.5 32.5 1043360 668540 pts/1  R+   19:44   0:01 ./parser rsa-blind.cir.map 2.5 10000000 rsa-blind.cir.inputs rsa-blind.cir.stats rsa-blind.cir.t1 3 1
benja     6130 52.5 32.6 1043756 669916 pts/1  R+   19:44   0:01 ./parser rsa-blind.cir.map 2.5 10000000 rsa-blind.cir.inputs rsa-blind.cir.stats rsa-blind.cir.t1 3 1
benja     6130 53.5 32.7 1044284 671908 pts/1  R+   19:44   0:01 ./parser rsa-blind.cir.map 2.5 10000000 rsa-blind.cir.inputs rsa-blind.cir.stats rsa-blind.cir.t1 3 1
benja     6130 54.5 32.8 1044812 674244 pts/1  R+   19:44   0:01 ./parser rsa-blind.cir.map 2.5 10000000 rsa-blind.cir.inputs rsa-blind.cir.stats rsa-blind.cir.t1 3 1
benja     6130 55.5 32.9 1045340 676732 pts/1  R+   19:44   0:01 ./parser rsa-blind.cir.map 2.5 10000000 rsa-blind.cir.inputs rsa-blind.cir.stats rsa-blind.cir.t1 3 1
benja     6130 56.0 33.0 1045868 677772 pts/1  R+   19:44   0:01 ./parser rsa-blind.cir.map 2.5 10000000 rsa-blind.cir.inputs rsa-blind.cir.stats rsa-blind.cir.t1 3 1
benja     6130 57.5 33.1 1046660 679528 pts/1  R+   19:44   0:01 ./parser rsa-blind.cir.map 2.5 10000000 rsa-blind.cir.inputs rsa-blind.cir.stats rsa-blind.cir.t1 3 1
benja     6130 58.0 33.1 1046792 680024 pts/1  R+   19:44   0:01 ./parser rsa-blind.cir.map 2.5 10000000 rsa-blind.cir.inputs rsa-blind.cir.stats rsa-blind.cir.t1 3 1
benja     6130 58.5 33.2 1047452 681724 pts/1  R+   19:44   0:01 ./parser rsa-blind.cir.map 2.5 10000000 rsa-blind.cir.inputs rsa-blind.cir.stats rsa-blind.cir.t1 3 1
benja     6130 59.0 33.2 1047716 682212 pts/1  R+   19:44   0:01 ./parser rsa-blind.cir.map 2.5 10000000 rsa-blind.cir.inputs rsa-blind.cir.stats rsa-blind.cir.t1 3 1
benja     6130 40.0 33.3 1048376 683452 pts/1  R+   19:44   0:01 ./parser rsa-blind.cir.map 2.5 10000000 rsa-blind.cir.inputs rsa-blind.cir.stats rsa-blind.cir.t1 3 1
benja     6130 40.6 33.3 1048772 684200 pts/1  R+   19:44   0:01 ./parser rsa-blind.cir.map 2.5 10000000 rsa-blind.cir.inputs rsa-blind.cir.stats rsa-blind.cir.t1 3 1
benja     6130 40.6 33.3 1049168 684692 pts/1  R+   19:44   0:01 ./parser rsa-blind.cir.map 2.5 10000000 rsa-blind.cir.inputs rsa-blind.cir.stats rsa-blind.cir.t1 3 1
benja     6130 41.3 33.4 1049828 685624 pts/1  R+   19:44   0:01 ./parser rsa-blind.cir.map 2.5 10000000 rsa-blind.cir.inputs rsa-blind.cir.stats rsa-blind.cir.t1 3 1
benja     6130 42.0 33.4 1050356 686616 pts/1  R+   19:44   0:01 ./parser rsa-blind.cir.map 2.5 10000000 rsa-blind.cir.inputs rsa-blind.cir.stats rsa-blind.cir.t1 3 1
benja     6130 42.6 33.5 1050752 687376 pts/1  R+   19:44   0:01 ./parser rsa-blind.cir.map 2.5 10000000 rsa-blind.cir.inputs rsa-blind.cir.stats rsa-blind.cir.t1 3 1
benja     6130 43.0 33.5 1051280 688388 pts/1  R+   19:44   0:01 ./parser rsa-blind.cir.map 2.5 10000000 rsa-blind.cir.inputs rsa-blind.cir.stats rsa-blind.cir.t1 3 1
benja     6130 43.3 33.6 1051808 689432 pts/1  R+   19:44   0:01 ./parser rsa-blind.cir.map 2.5 10000000 rsa-blind.cir.inputs rsa-blind.cir.stats rsa-blind.cir.t1 3 1
benja     6130 44.3 33.6 1052336 690584 pts/1  R+   19:44   0:01 ./parser rsa-blind.cir.map 2.5 10000000 rsa-blind.cir.inputs rsa-blind.cir.stats rsa-blind.cir.t1 3 1
benja     6130 44.6 33.6 1052732 691272 pts/1  R+   19:44   0:01 ./parser rsa-blind.cir.map 2.5 10000000 rsa-blind.cir.inputs rsa-blind.cir.stats rsa-blind.cir.t1 3 1
benja     6130 45.3 33.7 1053260 692204 pts/1  R+   19:44   0:01 ./parser rsa-blind.cir.map 2.5 10000000 rsa-blind.cir.inputs rsa-blind.cir.stats rsa-blind.cir.t1 3 1
benja     6130 46.0 33.7 1053788 693036 pts/1  R+   19:44   0:01 ./parser rsa-blind.cir.map 2.5 10000000 rsa-blind.cir.inputs rsa-blind.cir.stats rsa-blind.cir.t1 3 1
benja     6130 46.3 33.8 1054184 693704 pts/1  R+   19:44   0:01 ./parser rsa-blind.cir.map 2.5 10000000 rsa-blind.cir.inputs rsa-blind.cir.stats rsa-blind.cir.t1 3 1
benja     6130 47.0 33.8 1054976 694900 pts/1  R+   19:44   0:01 ./parser rsa-blind.cir.map 2.5 10000000 rsa-blind.cir.inputs rsa-blind.cir.stats rsa-blind.cir.t1 3 1
benja     6130 47.3 33.9 1055372 695688 pts/1  R+   19:44   0:01 ./parser rsa-blind.cir.map 2.5 10000000 rsa-blind.cir.inputs rsa-blind.cir.stats rsa-blind.cir.t1 3 1
benja     6130 48.0 33.9 1056032 696564 pts/1  R+   19:44   0:01 ./parser rsa-blind.cir.map 2.5 10000000 rsa-blind.cir.inputs rsa-blind.cir.stats rsa-blind.cir.t1 3 1
benja     6130 48.0 33.9 1056428 697292 pts/1  R+   19:44   0:01 ./parser rsa-blind.cir.map 2.5 10000000 rsa-blind.cir.inputs rsa-blind.cir.stats rsa-blind.cir.t1 3 1
benja     6130 48.6 34.0 1056824 697920 pts/1  R+   19:44   0:01 ./parser rsa-blind.cir.map 2.5 10000000 rsa-blind.cir.inputs rsa-blind.cir.stats rsa-blind.cir.t1 3 1
benja     6130 49.3 34.0 1057484 698600 pts/1  R+   19:44   0:01 ./parser rsa-blind.cir.map 2.5 10000000 rsa-blind.cir.inputs rsa-blind.cir.stats rsa-blind.cir.t1 3 1
benja     6130 49.6 34.0 1057748 699052 pts/1  R+   19:44   0:01 ./parser rsa-blind.cir.map 2.5 10000000 rsa-blind.cir.inputs rsa-blind.cir.stats rsa-blind.cir.t1 3 1
benja     6130 50.0 34.0 1058144 699548 pts/1  R+   19:44   0:01 ./parser rsa-blind.cir.map 2.5 10000000 rsa-blind.cir.inputs rsa-blind.cir.stats rsa-blind.cir.t1 3 1
benja     6130 50.6 34.1 1058804 700580 pts/1  R+   19:44   0:01 ./parser rsa-blind.cir.map 2.5 10000000 rsa-blind.cir.inputs rsa-blind.cir.stats rsa-blind.cir.t1 3 1
benja     6130 51.3 34.1 1059332 701352 pts/1  R+   19:44   0:01 ./parser rsa-blind.cir.map 2.5 10000000 rsa-blind.cir.inputs rsa-blind.cir.stats rsa-blind.cir.t1 3 1
benja     6130 51.6 34.2 1059728 701780 pts/1  R+   19:44   0:01 ./parser rsa-blind.cir.map 2.5 10000000 rsa-blind.cir.inputs rsa-blind.cir.stats rsa-blind.cir.t1 3 1
benja     6130 52.0 34.2 1060124 702780 pts/1  R+   19:44   0:01 ./parser rsa-blind.cir.map 2.5 10000000 rsa-blind.cir.inputs rsa-blind.cir.stats rsa-blind.cir.t1 3 1
benja     6130 52.6 34.2 1060916 703676 pts/1  R+   19:44   0:01 ./parser rsa-blind.cir.map 2.5 10000000 rsa-blind.cir.inputs rsa-blind.cir.stats rsa-blind.cir.t1 3 1
benja     6130 53.0 34.3 1061048 703940 pts/1  D+   19:44   0:01 ./parser rsa-blind.cir.map 2.5 10000000 rsa-blind.cir.inputs rsa-blind.cir.stats rsa-blind.cir.t1 3 1
benja     6130 53.0 34.3 1061048 703940 pts/1  D+   19:44   0:01 ./parser rsa-blind.cir.map 2.5 10000000 rsa-blind.cir.inputs rsa-blind.cir.stats rsa-blind.cir.t1 3 1
benja     6130 53.0 34.3 1061048 703940 pts/1  D+   19:44   0:01 ./parser rsa-blind.cir.map 2.5 10000000 rsa-blind.cir.inputs rsa-blind.cir.stats rsa-blind.cir.t1 3 1
benja     6130 53.0 34.3 1061048 703940 pts/1  D+   19:44   0:01 ./parser rsa-blind.cir.map 2.5 10000000 rsa-blind.cir.inputs rsa-blind.cir.stats rsa-blind.cir.t1 3 1
benja     6130 53.0 34.3 1061048 703940 pts/1  D+   19:44   0:01 ./parser rsa-blind.cir.map 2.5 10000000 rsa-blind.cir.inputs rsa-blind.cir.stats rsa-blind.cir.t1 3 1
benja     6130 53.0 34.3 1061048 703940 pts/1  D+   19:44   0:01 ./parser rsa-blind.cir.map 2.5 10000000 rsa-blind.cir.inputs rsa-blind.cir.stats rsa-blind.cir.t1 3 1
benja     6130 53.0 34.3 1061048 703940 pts/1  D+   19:44   0:01 ./parser rsa-blind.cir.map 2.5 10000000 rsa-blind.cir.inputs rsa-blind.cir.stats rsa-blind.cir.t1 3 1
benja     6130 53.0 34.3 1061048 703940 pts/1  D+   19:44   0:01 ./parser rsa-blind.cir.map 2.5 10000000 rsa-blind.cir.inputs rsa-blind.cir.stats rsa-blind.cir.t1 3 1
benja     6130 53.0 34.3 1061180 704192 pts/1  D+   19:44   0:01 ./parser rsa-blind.cir.map 2.5 10000000 rsa-blind.cir.inputs rsa-blind.cir.stats rsa-blind.cir.t1 3 1
benja     6130 53.0 34.3 1061180 704192 pts/1  D+   19:44   0:01 ./parser rsa-blind.cir.map 2.5 10000000 rsa-blind.cir.inputs rsa-blind.cir.stats rsa-blind.cir.t1 3 1
benja     6130 53.0 34.3 1061180 704192 pts/1  D+   19:44   0:01 ./parser rsa-blind.cir.map 2.5 10000000 rsa-blind.cir.inputs rsa-blind.cir.stats rsa-blind.cir.t1 3 1
benja     6130 53.0 34.3 1061180 704192 pts/1  D+   19:44   0:01 ./parser rsa-blind.cir.map 2.5 10000000 rsa-blind.cir.inputs rsa-blind.cir.stats rsa-blind.cir.t1 3 1
benja     6130 53.0 34.3 1061180 704192 pts/1  D+   19:44   0:01 ./parser rsa-blind.cir.map 2.5 10000000 rsa-blind.cir.inputs rsa-blind.cir.stats rsa-blind.cir.t1 3 1
benja     6130 39.7 34.3 1061180 704192 pts/1  D+   19:44   0:01 ./parser rsa-blind.cir.map 2.5 10000000 rsa-blind.cir.inputs rsa-blind.cir.stats rsa-blind.cir.t1 3 1
benja     6130 39.7 34.3 1061180 704192 pts/1  D+   19:44   0:01 ./parser rsa-blind.cir.map 2.5 10000000 rsa-blind.cir.inputs rsa-blind.cir.stats rsa-blind.cir.t1 3 1
benja     6130 39.7 34.3 1061180 704192 pts/1  D+   19:44   0:01 ./parser rsa-blind.cir.map 2.5 10000000 rsa-blind.cir.inputs rsa-blind.cir.stats rsa-blind.cir.t1 3 1
benja     6130 39.7 34.3 1061180 704192 pts/1  D+   19:44   0:01 ./parser rsa-blind.cir.map 2.5 10000000 rsa-blind.cir.inputs rsa-blind.cir.stats rsa-blind.cir.t1 3 1
benja     6130 39.7 34.3 1061180 704192 pts/1  D+   19:44   0:01 ./parser rsa-blind.cir.map 2.5 10000000 rsa-blind.cir.inputs rsa-blind.cir.stats rsa-blind.cir.t1 3 1
benja     6130 39.7 34.3 1061180 704192 pts/1  D+   19:44   0:01 ./parser rsa-blind.cir.map 2.5 10000000 rsa-blind.cir.inputs rsa-blind.cir.stats rsa-blind.cir.t1 3 1
benja     6130 39.7 34.3 1061180 704192 pts/1  D+   19:44   0:01 ./parser rsa-blind.cir.map 2.5 10000000 rsa-blind.cir.inputs rsa-blind.cir.stats rsa-blind.cir.t1 3 1
benja     6130 39.7 34.3 1061180 704192 pts/1  D+   19:44   0:01 ./parser rsa-blind.cir.map 2.5 10000000 rsa-blind.cir.inputs rsa-blind.cir.stats rsa-blind.cir.t1 3 1
benja     6130 39.7 34.3 1061180 704192 pts/1  D+   19:44   0:01 ./parser rsa-blind.cir.map 2.5 10000000 rsa-blind.cir.inputs rsa-blind.cir.stats rsa-blind.cir.t1 3 1
benja     6130 39.7 34.3 1061180 704192 pts/1  D+   19:44   0:01 ./parser rsa-blind.cir.map 2.5 10000000 rsa-blind.cir.inputs rsa-blind.cir.stats rsa-blind.cir.t1 3 1
benja     6130 40.2 34.3 1061708 705044 pts/1  R+   19:44   0:01 ./parser rsa-blind.cir.map 2.5 10000000 rsa-blind.cir.inputs rsa-blind.cir.stats rsa-blind.cir.t1 3 1
benja     6130 40.7 34.3 1062236 705476 pts/1  R+   19:44   0:01 ./parser rsa-blind.cir.map 2.5 10000000 rsa-blind.cir.inputs rsa-blind.cir.stats rsa-blind.cir.t1 3 1
benja     6130 41.2 34.4 1062896 706388 pts/1  R+   19:44   0:01 ./parser rsa-blind.cir.map 2.5 10000000 rsa-blind.cir.inputs rsa-blind.cir.stats rsa-blind.cir.t1 3 1
benja     6130 41.7 34.4 1063424 707108 pts/1  R+   19:44   0:01 ./parser rsa-blind.cir.map 2.5 10000000 rsa-blind.cir.inputs rsa-blind.cir.stats rsa-blind.cir.t1 3 1
benja     6130 42.0 34.4 1063820 707620 pts/1  R+   19:44   0:01 ./parser rsa-blind.cir.map 2.5 10000000 rsa-blind.cir.inputs rsa-blind.cir.stats rsa-blind.cir.t1 3 1
benja     6130 42.5 34.5 1064348 708268 pts/1  R+   19:44   0:01 ./parser rsa-blind.cir.map 2.5 10000000 rsa-blind.cir.inputs rsa-blind.cir.stats rsa-blind.cir.t1 3 1
benja     6130 43.0 34.5 1064876 709140 pts/1  R+   19:44   0:01 ./parser rsa-blind.cir.map 2.5 10000000 rsa-blind.cir.inputs rsa-blind.cir.stats rsa-blind.cir.t1 3 1
benja     6130 43.5 34.5 1065272 709576 pts/1  R+   19:44   0:01 ./parser rsa-blind.cir.map 2.5 10000000 rsa-blind.cir.inputs rsa-blind.cir.stats rsa-blind.cir.t1 3 1
benja     6130 43.7 34.6 1065668 710008 pts/1  R+   19:44   0:01 ./parser rsa-blind.cir.map 2.5 10000000 rsa-blind.cir.inputs rsa-blind.cir.stats rsa-blind.cir.t1 3 1
benja     6130 44.2 34.8 1066460 714632 pts/1  R+   19:44   0:01 ./parser rsa-blind.cir.map 2.5 10000000 rsa-blind.cir.inputs rsa-blind.cir.stats rsa-blind.cir.t1 3 1
benja     6130 44.7 35.1 1066988 720232 pts/1  R+   19:44   0:01 ./parser rsa-blind.cir.map 2.5 10000000 rsa-blind.cir.inputs rsa-blind.cir.stats rsa-blind.cir.t1 3 1
benja     6130 45.0 35.2 1067252 723792 pts/1  R+   19:44   0:01 ./parser rsa-blind.cir.map 2.5 10000000 rsa-blind.cir.inputs rsa-blind.cir.stats rsa-blind.cir.t1 3 1
benja     6130 45.5 35.4 1067648 727576 pts/1  R+   19:44   0:01 ./parser rsa-blind.cir.map 2.5 10000000 rsa-blind.cir.inputs rsa-blind.cir.stats rsa-blind.cir.t1 3 1
benja     6130 46.0 35.6 1068044 732116 pts/1  R+   19:44   0:01 ./parser rsa-blind.cir.map 2.5 10000000 rsa-blind.cir.inputs rsa-blind.cir.stats rsa-blind.cir.t1 3 1
benja     6130 46.5 35.8 1068440 736260 pts/1  R+   19:44   0:01 ./parser rsa-blind.cir.map 2.5 10000000 rsa-blind.cir.inputs rsa-blind.cir.stats rsa-blind.cir.t1 3 1
benja     6130 46.7 36.0 1068704 739084 pts/1  R+   19:44   0:01 ./parser rsa-blind.cir.map 2.5 10000000 rsa-blind.cir.inputs rsa-blind.cir.stats rsa-blind.cir.t1 3 1
benja     6130 47.2 36.1 1069100 742552 pts/1  R+   19:44   0:01 ./parser rsa-blind.cir.map 2.5 10000000 rsa-blind.cir.inputs rsa-blind.cir.stats rsa-blind.cir.t1 3 1
benja     6130 47.5 36.3 1069628 746352 pts/1  R+   19:44   0:01 ./parser rsa-blind.cir.map 2.5 10000000 rsa-blind.cir.inputs rsa-blind.cir.stats rsa-blind.cir.t1 3 1
benja     6130 48.0 36.5 1070024 749532 pts/1  R+   19:44   0:01 ./parser rsa-blind.cir.map 2.5 10000000 rsa-blind.cir.inputs rsa-blind.cir.stats rsa-blind.cir.t1 3 1
benja     6130 48.5 36.7 1070420 753940 pts/1  R+   19:44   0:01 ./parser rsa-blind.cir.map 2.5 10000000 rsa-blind.cir.inputs rsa-blind.cir.stats rsa-blind.cir.t1 3 1
benja     6130 48.7 36.8 1070816 756480 pts/1  R+   19:44   0:01 ./parser rsa-blind.cir.map 2.5 10000000 rsa-blind.cir.inputs rsa-blind.cir.stats rsa-blind.cir.t1 3 1
benja     6130 49.2 37.1 1071344 761200 pts/1  R+   19:44   0:01 ./parser rsa-blind.cir.map 2.5 10000000 rsa-blind.cir.inputs rsa-blind.cir.stats rsa-blind.cir.t1 3 1
benja     6130 49.7 37.2 1071740 764240 pts/1  R+   19:44   0:01 ./parser rsa-blind.cir.map 2.5 10000000 rsa-blind.cir.inputs rsa-blind.cir.stats rsa-blind.cir.t1 3 1
benja     6130 50.2 37.4 1072268 768596 pts/1  R+   19:44   0:02 ./parser rsa-blind.cir.map 2.5 10000000 rsa-blind.cir.inputs rsa-blind.cir.stats rsa-blind.cir.t1 3 1
benja     6130 50.7 37.5 1072664 771344 pts/1  R+   19:44   0:02 ./parser rsa-blind.cir.map 2.5 10000000 rsa-blind.cir.inputs rsa-blind.cir.stats rsa-blind.cir.t1 3 1
benja     6130 51.0 37.7 1073192 774524 pts/1  R+   19:44   0:02 ./parser rsa-blind.cir.map 2.5 10000000 rsa-blind.cir.inputs rsa-blind.cir.stats rsa-blind.cir.t1 3 1
benja     6130 51.5 37.8 1073456 776876 pts/1  R+   19:44   0:02 ./parser rsa-blind.cir.map 2.5 10000000 rsa-blind.cir.inputs rsa-blind.cir.stats rsa-blind.cir.t1 3 1
benja     6130 51.7 37.9 1073720 778888 pts/1  R+   19:44   0:02 ./parser rsa-blind.cir.map 2.5 10000000 rsa-blind.cir.inputs rsa-blind.cir.stats rsa-blind.cir.t1 3 1
benja     6130 42.0 38.1 1074116 781856 pts/1  R+   19:44   0:02 ./parser rsa-blind.cir.map 2.5 10000000 rsa-blind.cir.inputs rsa-blind.cir.stats rsa-blind.cir.t1 3 1
benja     6130 42.2 38.2 1074512 783900 pts/1  R+   19:44   0:02 ./parser rsa-blind.cir.map 2.5 10000000 rsa-blind.cir.inputs rsa-blind.cir.stats rsa-blind.cir.t1 3 1
benja     6130 42.4 38.3 1074776 785920 pts/1  R+   19:44   0:02 ./parser rsa-blind.cir.map 2.5 10000000 rsa-blind.cir.inputs rsa-blind.cir.stats rsa-blind.cir.t1 3 1
benja     6130 42.8 38.4 1075172 788872 pts/1  R+   19:44   0:02 ./parser rsa-blind.cir.map 2.5 10000000 rsa-blind.cir.inputs rsa-blind.cir.stats rsa-blind.cir.t1 3 1
benja     6130 43.2 38.5 1075568 791280 pts/1  R+   19:44   0:02 ./parser rsa-blind.cir.map 2.5 10000000 rsa-blind.cir.inputs rsa-blind.cir.stats rsa-blind.cir.t1 3 1
benja     6130 43.6 38.7 1076096 794224 pts/1  R+   19:44   0:02 ./parser rsa-blind.cir.map 2.5 10000000 rsa-blind.cir.inputs rsa-blind.cir.stats rsa-blind.cir.t1 3 1
benja     6130 44.0 38.8 1076360 796220 pts/1  R+   19:44   0:02 ./parser rsa-blind.cir.map 2.5 10000000 rsa-blind.cir.inputs rsa-blind.cir.stats rsa-blind.cir.t1 3 1
benja     6130 44.2 38.9 1076888 798720 pts/1  R+   19:44   0:02 ./parser rsa-blind.cir.map 2.5 10000000 rsa-blind.cir.inputs rsa-blind.cir.stats rsa-blind.cir.t1 3 1
benja     6130 44.4 39.0 1077284 800996 pts/1  R+   19:44   0:02 ./parser rsa-blind.cir.map 2.5 10000000 rsa-blind.cir.inputs rsa-blind.cir.stats rsa-blind.cir.t1 3 1
benja     6130 44.8 39.1 1077680 803232 pts/1  R+   19:44   0:02 ./parser rsa-blind.cir.map 2.5 10000000 rsa-blind.cir.inputs rsa-blind.cir.stats rsa-blind.cir.t1 3 1
benja     6130 45.0 39.2 1078076 805208 pts/1  R+   19:44   0:02 ./parser rsa-blind.cir.map 2.5 10000000 rsa-blind.cir.inputs rsa-blind.cir.stats rsa-blind.cir.t1 3 1
benja     6130 45.6 39.3 1078604 808140 pts/1  R+   19:44   0:02 ./parser rsa-blind.cir.map 2.5 10000000 rsa-blind.cir.inputs rsa-blind.cir.stats rsa-blind.cir.t1 3 1
benja     6130 45.8 39.4 1078868 809340 pts/1  R+   19:44   0:02 ./parser rsa-blind.cir.map 2.5 10000000 rsa-blind.cir.inputs rsa-blind.cir.stats rsa-blind.cir.t1 3 1
benja     6130 46.0 39.5 1079396 811388 pts/1  R+   19:44   0:02 ./parser rsa-blind.cir.map 2.5 10000000 rsa-blind.cir.inputs rsa-blind.cir.stats rsa-blind.cir.t1 3 1
benja     6130 46.4 39.6 1079660 812996 pts/1  R+   19:44   0:02 ./parser rsa-blind.cir.map 2.5 10000000 rsa-blind.cir.inputs rsa-blind.cir.stats rsa-blind.cir.t1 3 1
benja     6130 46.8 39.7 1080188 815288 pts/1  R+   19:44   0:02 ./parser rsa-blind.cir.map 2.5 10000000 rsa-blind.cir.inputs rsa-blind.cir.stats rsa-blind.cir.t1 3 1
benja     6130 47.0 39.8 1080584 817044 pts/1  R+   19:44   0:02 ./parser rsa-blind.cir.map 2.5 10000000 rsa-blind.cir.inputs rsa-blind.cir.stats rsa-blind.cir.t1 3 1
benja     6130 47.4 39.9 1080980 819016 pts/1  R+   19:44   0:02 ./parser rsa-blind.cir.map 2.5 10000000 rsa-blind.cir.inputs rsa-blind.cir.stats rsa-blind.cir.t1 3 1
benja     6130 47.8 40.0 1081508 820716 pts/1  R+   19:44   0:02 ./parser rsa-blind.cir.map 2.5 10000000 rsa-blind.cir.inputs rsa-blind.cir.stats rsa-blind.cir.t1 3 1
benja     6130 48.2 40.1 1082036 823192 pts/1  R+   19:44   0:02 ./parser rsa-blind.cir.map 2.5 10000000 rsa-blind.cir.inputs rsa-blind.cir.stats rsa-blind.cir.t1 3 1
benja     6130 48.6 40.2 1082432 825068 pts/1  R+   19:44   0:02 ./parser rsa-blind.cir.map 2.5 10000000 rsa-blind.cir.inputs rsa-blind.cir.stats rsa-blind.cir.t1 3 1
benja     6130 49.0 40.2 1082960 826700 pts/1  R+   19:44   0:02 ./parser rsa-blind.cir.map 2.5 10000000 rsa-blind.cir.inputs rsa-blind.cir.stats rsa-blind.cir.t1 3 1
benja     6130 49.2 40.3 1083224 827532 pts/1  R+   19:44   0:02 ./parser rsa-blind.cir.map 2.5 10000000 rsa-blind.cir.inputs rsa-blind.cir.stats rsa-blind.cir.t1 3 1
benja     6130 49.4 40.4 1083620 829688 pts/1  R+   19:44   0:02 ./parser rsa-blind.cir.map 2.5 10000000 rsa-blind.cir.inputs rsa-blind.cir.stats rsa-blind.cir.t1 3 1
benja     6130 50.0 40.5 1084016 831684 pts/1  R+   19:44   0:02 ./parser rsa-blind.cir.map 2.5 10000000 rsa-blind.cir.inputs rsa-blind.cir.stats rsa-blind.cir.t1 3 1
benja     6130 50.2 40.6 1084412 833256 pts/1  R+   19:44   0:02 ./parser rsa-blind.cir.map 2.5 10000000 rsa-blind.cir.inputs rsa-blind.cir.stats rsa-blind.cir.t1 3 1
benja     6130 42.0 40.6 1084808 834724 pts/1  R+   19:44   0:02 ./parser rsa-blind.cir.map 2.5 10000000 rsa-blind.cir.inputs rsa-blind.cir.stats rsa-blind.cir.t1 3 1
benja     6130 42.3 40.7 1085336 836116 pts/1  R+   19:44   0:02 ./parser rsa-blind.cir.map 2.5 10000000 rsa-blind.cir.inputs rsa-blind.cir.stats rsa-blind.cir.t1 3 1
benja     6130 42.8 40.8 1085732 837732 pts/1  R+   19:44   0:02 ./parser rsa-blind.cir.map 2.5 10000000 rsa-blind.cir.inputs rsa-blind.cir.stats rsa-blind.cir.t1 3 1
benja     6130 43.0 40.9 1086128 839360 pts/1  R+   19:44   0:02 ./parser rsa-blind.cir.map 2.5 10000000 rsa-blind.cir.inputs rsa-blind.cir.stats rsa-blind.cir.t1 3 1
benja     6130 43.1 40.9 1086524 840684 pts/1  R+   19:44   0:02 ./parser rsa-blind.cir.map 2.5 10000000 rsa-blind.cir.inputs rsa-blind.cir.stats rsa-blind.cir.t1 3 1
benja     6130 43.6 41.0 1086920 842160 pts/1  R+   19:44   0:02 ./parser rsa-blind.cir.map 2.5 10000000 rsa-blind.cir.inputs rsa-blind.cir.stats rsa-blind.cir.t1 3 1
benja     6130 43.8 41.1 1087316 843892 pts/1  R+   19:44   0:02 ./parser rsa-blind.cir.map 2.5 10000000 rsa-blind.cir.inputs rsa-blind.cir.stats rsa-blind.cir.t1 3 1
benja     6130 44.0 41.2 1087580 845368 pts/1  R+   19:44   0:02 ./parser rsa-blind.cir.map 2.5 10000000 rsa-blind.cir.inputs rsa-blind.cir.stats rsa-blind.cir.t1 3 1
benja     6130 44.3 41.2 1087976 846848 pts/1  R+   19:44   0:02 ./parser rsa-blind.cir.map 2.5 10000000 rsa-blind.cir.inputs rsa-blind.cir.stats rsa-blind.cir.t1 3 1
benja     6130 44.5 41.3 1088504 847808 pts/1  R+   19:44   0:02 ./parser rsa-blind.cir.map 2.5 10000000 rsa-blind.cir.inputs rsa-blind.cir.stats rsa-blind.cir.t1 3 1
benja     6130 44.8 41.3 1088900 849000 pts/1  R+   19:44   0:02 ./parser rsa-blind.cir.map 2.5 10000000 rsa-blind.cir.inputs rsa-blind.cir.stats rsa-blind.cir.t1 3 1
benja     6130 45.1 41.4 1089428 850448 pts/1  R+   19:44   0:02 ./parser rsa-blind.cir.map 2.5 10000000 rsa-blind.cir.inputs rsa-blind.cir.stats rsa-blind.cir.t1 3 1
benja     6130 45.3 41.4 1089692 851180 pts/1  R+   19:44   0:02 ./parser rsa-blind.cir.map 2.5 10000000 rsa-blind.cir.inputs rsa-blind.cir.stats rsa-blind.cir.t1 3 1
benja     6130 45.6 41.5 1090088 852644 pts/1  R+   19:44   0:02 ./parser rsa-blind.cir.map 2.5 10000000 rsa-blind.cir.inputs rsa-blind.cir.stats rsa-blind.cir.t1 3 1
benja     6130 45.8 41.6 1090484 853604 pts/1  R+   19:44   0:02 ./parser rsa-blind.cir.map 2.5 10000000 rsa-blind.cir.inputs rsa-blind.cir.stats rsa-blind.cir.t1 3 1
benja     6130 46.1 41.6 1090880 854544 pts/1  R+   19:44   0:02 ./parser rsa-blind.cir.map 2.5 10000000 rsa-blind.cir.inputs rsa-blind.cir.stats rsa-blind.cir.t1 3 1
benja     6130 46.3 41.7 1091276 855752 pts/1  R+   19:44   0:02 ./parser rsa-blind.cir.map 2.5 10000000 rsa-blind.cir.inputs rsa-blind.cir.stats rsa-blind.cir.t1 3 1
benja     6130 46.6 41.7 1091804 857228 pts/1  R+   19:44   0:02 ./parser rsa-blind.cir.map 2.5 10000000 rsa-blind.cir.inputs rsa-blind.cir.stats rsa-blind.cir.t1 3 1
benja     6130 47.0 41.8 1092200 858192 pts/1  R+   19:44   0:02 ./parser rsa-blind.cir.map 2.5 10000000 rsa-blind.cir.inputs rsa-blind.cir.stats rsa-blind.cir.t1 3 1
benja     6130 47.3 41.8 1092728 859600 pts/1  R+   19:44   0:02 ./parser rsa-blind.cir.map 2.5 10000000 rsa-blind.cir.inputs rsa-blind.cir.stats rsa-blind.cir.t1 3 1
benja     6130 47.5 41.9 1093124 860288 pts/1  R+   19:44   0:02 ./parser rsa-blind.cir.map 2.5 10000000 rsa-blind.cir.inputs rsa-blind.cir.stats rsa-blind.cir.t1 3 1
benja     6130 47.8 41.9 1093652 861460 pts/1  R+   19:44   0:02 ./parser rsa-blind.cir.map 2.5 10000000 rsa-blind.cir.inputs rsa-blind.cir.stats rsa-blind.cir.t1 3 1
benja     6130 48.1 42.0 1093916 862184 pts/1  R+   19:44   0:02 ./parser rsa-blind.cir.map 2.5 10000000 rsa-blind.cir.inputs rsa-blind.cir.stats rsa-blind.cir.t1 3 1
benja     6130 48.5 42.0 1094444 863628 pts/1  R+   19:44   0:02 ./parser rsa-blind.cir.map 2.5 10000000 rsa-blind.cir.inputs rsa-blind.cir.stats rsa-blind.cir.t1 3 1
benja     6130 48.5 42.1 1094708 864104 pts/1  R+   19:44   0:02 ./parser rsa-blind.cir.map 2.5 10000000 rsa-blind.cir.inputs rsa-blind.cir.stats rsa-blind.cir.t1 3 1
benja     6130 48.8 42.1 1095104 865036 pts/1  R+   19:44   0:02 ./parser rsa-blind.cir.map 2.5 10000000 rsa-blind.cir.inputs rsa-blind.cir.stats rsa-blind.cir.t1 3 1
benja     6130 49.1 42.1 1095500 865744 pts/1  R+   19:44   0:02 ./parser rsa-blind.cir.map 2.5 10000000 rsa-blind.cir.inputs rsa-blind.cir.stats rsa-blind.cir.t1 3 1
benja     6130 49.3 42.2 1095896 866952 pts/1  R+   19:44   0:02 ./parser rsa-blind.cir.map 2.5 10000000 rsa-blind.cir.inputs rsa-blind.cir.stats rsa-blind.cir.t1 3 1
benja     6130 49.5 42.2 1096292 867656 pts/1  R+   19:44   0:02 ./parser rsa-blind.cir.map 2.5 10000000 rsa-blind.cir.inputs rsa-blind.cir.stats rsa-blind.cir.t1 3 1
benja     6130 50.0 42.3 1096820 868828 pts/1  R+   19:44   0:03 ./parser rsa-blind.cir.map 2.5 10000000 rsa-blind.cir.inputs rsa-blind.cir.stats rsa-blind.cir.t1 3 1
benja     6130 50.3 42.4 1097348 870128 pts/1  R+   19:44   0:03 ./parser rsa-blind.cir.map 2.5 10000000 rsa-blind.cir.inputs rsa-blind.cir.stats rsa-blind.cir.t1 3 1
benja     6130 50.5 42.4 1097876 871308 pts/1  R+   19:44   0:03 ./parser rsa-blind.cir.map 2.5 10000000 rsa-blind.cir.inputs rsa-blind.cir.stats rsa-blind.cir.t1 3 1
benja     6130 50.6 42.5 1098140 872016 pts/1  R+   19:44   0:03 ./parser rsa-blind.cir.map 2.5 10000000 rsa-blind.cir.inputs rsa-blind.cir.stats rsa-blind.cir.t1 3 1
benja     6130 43.7 42.5 1098536 872708 pts/1  R+   19:44   0:03 ./parser rsa-blind.cir.map 2.5 10000000 rsa-blind.cir.inputs rsa-blind.cir.stats rsa-blind.cir.t1 3 1
benja     6130 43.8 42.5 1099064 873656 pts/1  R+   19:44   0:03 ./parser rsa-blind.cir.map 2.5 10000000 rsa-blind.cir.inputs rsa-blind.cir.stats rsa-blind.cir.t1 3 1
benja     6130 44.2 42.6 1099460 875104 pts/1  R+   19:44   0:03 ./parser rsa-blind.cir.map 2.5 10000000 rsa-blind.cir.inputs rsa-blind.cir.stats rsa-blind.cir.t1 3 1
benja     6130 44.4 42.6 1099988 876052 pts/1  R+   19:44   0:03 ./parser rsa-blind.cir.map 2.5 10000000 rsa-blind.cir.inputs rsa-blind.cir.stats rsa-blind.cir.t1 3 1
benja     6130 44.5 42.7 1100120 876284 pts/1  R+   19:44   0:03 ./parser rsa-blind.cir.map 2.5 10000000 rsa-blind.cir.inputs rsa-blind.cir.stats rsa-blind.cir.t1 3 1
benja     6130 44.8 42.7 1100516 877200 pts/1  R+   19:44   0:03 ./parser rsa-blind.cir.map 2.5 10000000 rsa-blind.cir.inputs rsa-blind.cir.stats rsa-blind.cir.t1 3 1
benja     6130 45.0 42.7 1100912 877888 pts/1  R+   19:44   0:03 ./parser rsa-blind.cir.map 2.5 10000000 rsa-blind.cir.inputs rsa-blind.cir.stats rsa-blind.cir.t1 3 1
benja     6130 45.2 42.8 1101440 879096 pts/1  R+   19:44   0:03 ./parser rsa-blind.cir.map 2.5 10000000 rsa-blind.cir.inputs rsa-blind.cir.stats rsa-blind.cir.t1 3 1
benja     6130 45.4 42.9 1101968 880276 pts/1  R+   19:44   0:03 ./parser rsa-blind.cir.map 2.5 10000000 rsa-blind.cir.inputs rsa-blind.cir.stats rsa-blind.cir.t1 3 1
benja     6130 45.7 42.9 1102364 880956 pts/1  R+   19:44   0:03 ./parser rsa-blind.cir.map 2.5 10000000 rsa-blind.cir.inputs rsa-blind.cir.stats rsa-blind.cir.t1 3 1
benja     6130 45.8 42.9 1102760 881640 pts/1  R+   19:44   0:03 ./parser rsa-blind.cir.map 2.5 10000000 rsa-blind.cir.inputs rsa-blind.cir.stats rsa-blind.cir.t1 3 1
benja     6130 46.1 43.0 1103288 882576 pts/1  R+   19:44   0:03 ./parser rsa-blind.cir.map 2.5 10000000 rsa-blind.cir.inputs rsa-blind.cir.stats rsa-blind.cir.t1 3 1
benja     6130 46.4 43.0 1103684 883768 pts/1  R+   19:44   0:03 ./parser rsa-blind.cir.map 2.5 10000000 rsa-blind.cir.inputs rsa-blind.cir.stats rsa-blind.cir.t1 3 1
benja     6130 46.5 43.0 1104080 884220 pts/1  R+   19:44   0:03 ./parser rsa-blind.cir.map 2.5 10000000 rsa-blind.cir.inputs rsa-blind.cir.stats rsa-blind.cir.t1 3 1
benja     6130 47.0 43.1 1104476 884892 pts/1  R+   19:44   0:03 ./parser rsa-blind.cir.map 2.5 10000000 rsa-blind.cir.inputs rsa-blind.cir.stats rsa-blind.cir.t1 3 1
benja     6130 47.1 43.1 1105004 885820 pts/1  R+   19:44   0:03 ./parser rsa-blind.cir.map 2.5 10000000 rsa-blind.cir.inputs rsa-blind.cir.stats rsa-blind.cir.t1 3 1
benja     6130 47.4 43.2 1105532 886756 pts/1  R+   19:44   0:03 ./parser rsa-blind.cir.map 2.5 10000000 rsa-blind.cir.inputs rsa-blind.cir.stats rsa-blind.cir.t1 3 1
benja     6130 47.7 43.2 1105928 887436 pts/1  R+   19:44   0:03 ./parser rsa-blind.cir.map 2.5 10000000 rsa-blind.cir.inputs rsa-blind.cir.stats rsa-blind.cir.t1 3 1
benja     6130 48.0 43.2 1106456 888108 pts/1  R+   19:44   0:03 ./parser rsa-blind.cir.map 2.5 10000000 rsa-blind.cir.inputs rsa-blind.cir.stats rsa-blind.cir.t1 3 1
benja     6130 48.1 43.3 1106852 888796 pts/1  R+   19:44   0:03 ./parser rsa-blind.cir.map 2.5 10000000 rsa-blind.cir.inputs rsa-blind.cir.stats rsa-blind.cir.t1 3 1
benja     6130 48.4 43.3 1107380 889976 pts/1  R+   19:44   0:03 ./parser rsa-blind.cir.map 2.5 10000000 rsa-blind.cir.inputs rsa-blind.cir.stats rsa-blind.cir.t1 3 1
benja     6130 48.5 43.4 1107908 890884 pts/1  R+   19:44   0:03 ./parser rsa-blind.cir.map 2.5 10000000 rsa-blind.cir.inputs rsa-blind.cir.stats rsa-blind.cir.t1 3 1
benja     6130 48.8 43.4 1108304 891336 pts/1  R+   19:44   0:03 ./parser rsa-blind.cir.map 2.5 10000000 rsa-blind.cir.inputs rsa-blind.cir.stats rsa-blind.cir.t1 3 1
benja     6130 49.1 43.4 1108700 892020 pts/1  R+   19:44   0:03 ./parser rsa-blind.cir.map 2.5 10000000 rsa-blind.cir.inputs rsa-blind.cir.stats rsa-blind.cir.t1 3 1
benja     6130 49.2 43.5 1108964 892724 pts/1  R+   19:44   0:03 ./parser rsa-blind.cir.map 2.5 10000000 rsa-blind.cir.inputs rsa-blind.cir.stats rsa-blind.cir.t1 3 1
benja     6130 49.4 43.5 1109492 893652 pts/1  R+   19:44   0:03 ./parser rsa-blind.cir.map 2.5 10000000 rsa-blind.cir.inputs rsa-blind.cir.stats rsa-blind.cir.t1 3 1
benja     6130 49.7 43.5 1109888 894336 pts/1  R+   19:44   0:03 ./parser rsa-blind.cir.map 2.5 10000000 rsa-blind.cir.inputs rsa-blind.cir.stats rsa-blind.cir.t1 3 1
benja     6130 50.0 43.6 1110284 895000 pts/1  R+   19:44   0:03 ./parser rsa-blind.cir.map 2.5 10000000 rsa-blind.cir.inputs rsa-blind.cir.stats rsa-blind.cir.t1 3 1
benja     6130 50.1 43.6 1110680 895692 pts/1  R+   19:44   0:03 ./parser rsa-blind.cir.map 2.5 10000000 rsa-blind.cir.inputs rsa-blind.cir.stats rsa-blind.cir.t1 3 1
benja     6130 50.2 43.6 1111076 896392 pts/1  R+   19:44   0:03 ./parser rsa-blind.cir.map 2.5 10000000 rsa-blind.cir.inputs rsa-blind.cir.stats rsa-blind.cir.t1 3 1
benja     6130 50.5 43.7 1111472 897332 pts/1  R+   19:44   0:03 ./parser rsa-blind.cir.map 2.5 10000000 rsa-blind.cir.inputs rsa-blind.cir.stats rsa-blind.cir.t1 3 1
benja     6130 50.7 43.7 1112000 898020 pts/1  R+   19:44   0:03 ./parser rsa-blind.cir.map 2.5 10000000 rsa-blind.cir.inputs rsa-blind.cir.stats rsa-blind.cir.t1 3 1
benja     6130 51.0 43.7 1112264 898464 pts/1  R+   19:44   0:03 ./parser rsa-blind.cir.map 2.5 10000000 rsa-blind.cir.inputs rsa-blind.cir.stats rsa-blind.cir.t1 3 1
benja     6130 44.8 43.8 1112792 899148 pts/1  R+   19:44   0:03 ./parser rsa-blind.cir.map 2.5 10000000 rsa-blind.cir.inputs rsa-blind.cir.stats rsa-blind.cir.t1 3 1
benja     6130 45.0 43.8 1113188 899828 pts/1  R+   19:44   0:03 ./parser rsa-blind.cir.map 2.5 10000000 rsa-blind.cir.inputs rsa-blind.cir.stats rsa-blind.cir.t1 3 1
benja     6130 45.2 43.9 1113716 900724 pts/1  R+   19:44   0:03 ./parser rsa-blind.cir.map 2.5 10000000 rsa-blind.cir.inputs rsa-blind.cir.stats rsa-blind.cir.t1 3 1
benja     6130 45.5 43.9 1113980 901172 pts/1  R+   19:44   0:03 ./parser rsa-blind.cir.map 2.5 10000000 rsa-blind.cir.inputs rsa-blind.cir.stats rsa-blind.cir.t1 3 1
benja     6130 45.6 43.9 1114376 901848 pts/1  R+   19:44   0:03 ./parser rsa-blind.cir.map 2.5 10000000 rsa-blind.cir.inputs rsa-blind.cir.stats rsa-blind.cir.t1 3 1
benja     6130 45.8 43.9 1114772 902316 pts/1  R+   19:44   0:03 ./parser rsa-blind.cir.map 2.5 10000000 rsa-blind.cir.inputs rsa-blind.cir.stats rsa-blind.cir.t1 3 1
benja     6130 46.0 44.0 1115168 903004 pts/1  R+   19:44   0:03 ./parser rsa-blind.cir.map 2.5 10000000 rsa-blind.cir.inputs rsa-blind.cir.stats rsa-blind.cir.t1 3 1
benja     6130 46.1 44.0 1115564 903676 pts/1  R+   19:44   0:03 ./parser rsa-blind.cir.map 2.5 10000000 rsa-blind.cir.inputs rsa-blind.cir.stats rsa-blind.cir.t1 3 1
benja     6130 46.3 44.0 1115960 904352 pts/1  R+   19:44   0:03 ./parser rsa-blind.cir.map 2.5 10000000 rsa-blind.cir.inputs rsa-blind.cir.stats rsa-blind.cir.t1 3 1
benja     6130 46.5 44.1 1116488 904804 pts/1  R+   19:44   0:03 ./parser rsa-blind.cir.map 2.5 10000000 rsa-blind.cir.inputs rsa-blind.cir.stats rsa-blind.cir.t1 3 1
benja     6130 46.7 44.1 1116884 905704 pts/1  R+   19:44   0:03 ./parser rsa-blind.cir.map 2.5 10000000 rsa-blind.cir.inputs rsa-blind.cir.stats rsa-blind.cir.t1 3 1
benja     6130 46.8 44.1 1117148 905932 pts/1  R+   19:44   0:03 ./parser rsa-blind.cir.map 2.5 10000000 rsa-blind.cir.inputs rsa-blind.cir.stats rsa-blind.cir.t1 3 1
benja     6130 47.2 44.1 1117808 906812 pts/1  R+   19:44   0:03 ./parser rsa-blind.cir.map 2.5 10000000 rsa-blind.cir.inputs rsa-blind.cir.stats rsa-blind.cir.t1 3 1
benja     6130 47.3 44.2 1118204 907476 pts/1  R+   19:44   0:03 ./parser rsa-blind.cir.map 2.5 10000000 rsa-blind.cir.inputs rsa-blind.cir.stats rsa-blind.cir.t1 3 1
benja     6130 47.5 44.2 1118732 908408 pts/1  R+   19:44   0:03 ./parser rsa-blind.cir.map 2.5 10000000 rsa-blind.cir.inputs rsa-blind.cir.stats rsa-blind.cir.t1 3 1
benja     6130 47.7 44.3 1119128 909104 pts/1  R+   19:44   0:03 ./parser rsa-blind.cir.map 2.5 10000000 rsa-blind.cir.inputs rsa-blind.cir.stats rsa-blind.cir.t1 3 1
benja     6130 48.0 44.3 1119656 910000 pts/1  R+   19:44   0:03 ./parser rsa-blind.cir.map 2.5 10000000 rsa-blind.cir.inputs rsa-blind.cir.stats rsa-blind.cir.t1 3 1
benja     6130 48.1 44.3 1120052 910436 pts/1  R+   19:44   0:03 ./parser rsa-blind.cir.map 2.5 10000000 rsa-blind.cir.inputs rsa-blind.cir.stats rsa-blind.cir.t1 3 1
benja     6130 48.3 44.4 1120448 911124 pts/1  R+   19:44   0:03 ./parser rsa-blind.cir.map 2.5 10000000 rsa-blind.cir.inputs rsa-blind.cir.stats rsa-blind.cir.t1 3 1
benja     6130 48.6 44.4 1120976 911796 pts/1  R+   19:44   0:03 ./parser rsa-blind.cir.map 2.5 10000000 rsa-blind.cir.inputs rsa-blind.cir.stats rsa-blind.cir.t1 3 1
benja     6130 48.7 44.4 1121372 912484 pts/1  R+   19:44   0:03 ./parser rsa-blind.cir.map 2.5 10000000 rsa-blind.cir.inputs rsa-blind.cir.stats rsa-blind.cir.t1 3 1
benja     6130 49.1 44.5 1121900 913364 pts/1  R+   19:44   0:03 ./parser rsa-blind.cir.map 2.5 10000000 rsa-blind.cir.inputs rsa-blind.cir.stats rsa-blind.cir.t1 3 1
benja     6130 49.2 44.5 1122296 913816 pts/1  R+   19:44   0:03 ./parser rsa-blind.cir.map 2.5 10000000 rsa-blind.cir.inputs rsa-blind.cir.stats rsa-blind.cir.t1 3 1
benja     6130 49.5 44.5 1122956 914952 pts/1  R+   19:44   0:03 ./parser rsa-blind.cir.map 2.5 10000000 rsa-blind.cir.inputs rsa-blind.cir.stats rsa-blind.cir.t1 3 1
benja     6130 49.7 44.6 1123352 915624 pts/1  R+   19:44   0:03 ./parser rsa-blind.cir.map 2.5 10000000 rsa-blind.cir.inputs rsa-blind.cir.stats rsa-blind.cir.t1 3 1
benja     6130 49.7 44.6 1123880 916068 pts/1  R+   19:44   0:03 ./parser rsa-blind.cir.map 2.5 10000000 rsa-blind.cir.inputs rsa-blind.cir.stats rsa-blind.cir.t1 3 1
benja     6130 50.2 44.7 1124672 917180 pts/1  R+   19:44   0:04 ./parser rsa-blind.cir.map 2.5 10000000 rsa-blind.cir.inputs rsa-blind.cir.stats rsa-blind.cir.t1 3 1
benja     6130 50.3 44.7 1124936 917628 pts/1  R+   19:44   0:04 ./parser rsa-blind.cir.map 2.5 10000000 rsa-blind.cir.inputs rsa-blind.cir.stats rsa-blind.cir.t1 3 1
benja     6130 50.6 44.7 1125332 918292 pts/1  R+   19:44   0:04 ./parser rsa-blind.cir.map 2.5 10000000 rsa-blind.cir.inputs rsa-blind.cir.stats rsa-blind.cir.t1 3 1
benja     6130 50.6 44.7 1125728 918748 pts/1  R+   19:44   0:04 ./parser rsa-blind.cir.map 2.5 10000000 rsa-blind.cir.inputs rsa-blind.cir.stats rsa-blind.cir.t1 3 1
benja     6130 52.2 44.8 1128632 919840 pts/1  R+   19:44   0:04 ./parser rsa-blind.cir.map 2.5 10000000 rsa-blind.cir.inputs rsa-blind.cir.stats rsa-blind.cir.t1 3 1
benja     6130 46.5 44.8 1129160 920524 pts/1  R+   19:44   0:04 ./parser rsa-blind.cir.map 2.5 10000000 rsa-blind.cir.inputs rsa-blind.cir.stats rsa-blind.cir.t1 3 1
benja     6130 46.6 44.8 1129556 921064 pts/1  R+   19:44   0:04 ./parser rsa-blind.cir.map 2.5 10000000 rsa-blind.cir.inputs rsa-blind.cir.stats rsa-blind.cir.t1 3 1
benja     6130 46.8 44.9 1129952 921732 pts/1  R+   19:44   0:04 ./parser rsa-blind.cir.map 2.5 10000000 rsa-blind.cir.inputs rsa-blind.cir.stats rsa-blind.cir.t1 3 1
benja     6130 47.1 44.9 1130612 922620 pts/1  R+   19:44   0:04 ./parser rsa-blind.cir.map 2.5 10000000 rsa-blind.cir.inputs rsa-blind.cir.stats rsa-blind.cir.t1 3 1
benja     6130 47.3 45.0 1131008 923296 pts/1  R+   19:44   0:04 ./parser rsa-blind.cir.map 2.5 10000000 rsa-blind.cir.inputs rsa-blind.cir.stats rsa-blind.cir.t1 3 1
benja     6130 47.5 45.0 1131536 923964 pts/1  R+   19:44   0:04 ./parser rsa-blind.cir.map 2.5 10000000 rsa-blind.cir.inputs rsa-blind.cir.stats rsa-blind.cir.t1 3 1
benja     6130 47.6 45.0 1131932 924628 pts/1  R+   19:44   0:04 ./parser rsa-blind.cir.map 2.5 10000000 rsa-blind.cir.inputs rsa-blind.cir.stats rsa-blind.cir.t1 3 1
benja     6130 47.8 45.0 1132328 925072 pts/1  R+   19:44   0:04 ./parser rsa-blind.cir.map 2.5 10000000 rsa-blind.cir.inputs rsa-blind.cir.stats rsa-blind.cir.t1 3 1
benja     6130 48.0 45.1 1132592 925476 pts/1  R+   19:44   0:04 ./parser rsa-blind.cir.map 2.5 10000000 rsa-blind.cir.inputs rsa-blind.cir.stats rsa-blind.cir.t1 3 1
benja     6130 48.2 45.1 1133252 926364 pts/1  R+   19:44   0:04 ./parser rsa-blind.cir.map 2.5 10000000 rsa-blind.cir.inputs rsa-blind.cir.stats rsa-blind.cir.t1 3 1
benja     6130 48.3 45.1 1133648 927028 pts/1  R+   19:44   0:04 ./parser rsa-blind.cir.map 2.5 10000000 rsa-blind.cir.inputs rsa-blind.cir.stats rsa-blind.cir.t1 3 1
benja     6130 48.6 45.2 1134176 927640 pts/1  R+   19:44   0:04 ./parser rsa-blind.cir.map 2.5 10000000 rsa-blind.cir.inputs rsa-blind.cir.stats rsa-blind.cir.t1 3 1
benja     6130 48.8 45.2 1134704 928316 pts/1  R+   19:44   0:04 ./parser rsa-blind.cir.map 2.5 10000000 rsa-blind.cir.inputs rsa-blind.cir.stats rsa-blind.cir.t1 3 1
benja     6130 49.0 45.2 1134968 928748 pts/1  R+   19:44   0:04 ./parser rsa-blind.cir.map 2.5 10000000 rsa-blind.cir.inputs rsa-blind.cir.stats rsa-blind.cir.t1 3 1
benja     6130 49.1 45.2 1135496 929400 pts/1  R+   19:44   0:04 ./parser rsa-blind.cir.map 2.5 10000000 rsa-blind.cir.inputs rsa-blind.cir.stats rsa-blind.cir.t1 3 1
benja     6130 49.4 45.3 1136156 930288 pts/1  R+   19:44   0:04 ./parser rsa-blind.cir.map 2.5 10000000 rsa-blind.cir.inputs rsa-blind.cir.stats rsa-blind.cir.t1 3 1
benja     6130 49.6 45.3 1136684 931160 pts/1  R+   19:44   0:04 ./parser rsa-blind.cir.map 2.5 10000000 rsa-blind.cir.inputs rsa-blind.cir.stats rsa-blind.cir.t1 3 1
benja     6130 49.7 45.4 1137080 931604 pts/1  R+   19:44   0:04 ./parser rsa-blind.cir.map 2.5 10000000 rsa-blind.cir.inputs rsa-blind.cir.stats rsa-blind.cir.t1 3 1
benja     6130 50.0 45.4 1137476 932260 pts/1  R+   19:44   0:04 ./parser rsa-blind.cir.map 2.5 10000000 rsa-blind.cir.inputs rsa-blind.cir.stats rsa-blind.cir.t1 3 1
benja     6130 50.2 45.4 1138004 932924 pts/1  R+   19:44   0:04 ./parser rsa-blind.cir.map 2.5 10000000 rsa-blind.cir.inputs rsa-blind.cir.stats rsa-blind.cir.t1 3 1
benja     6130 50.4 45.5 1138532 933524 pts/1  R+   19:44   0:04 ./parser rsa-blind.cir.map 2.5 10000000 rsa-blind.cir.inputs rsa-blind.cir.stats rsa-blind.cir.t1 3 1
benja     6130 50.6 45.5 1138928 934180 pts/1  R+   19:44   0:04 ./parser rsa-blind.cir.map 2.5 10000000 rsa-blind.cir.inputs rsa-blind.cir.stats rsa-blind.cir.t1 3 1
benja     6130 50.8 45.5 1139588 934848 pts/1  R+   19:44   0:04 ./parser rsa-blind.cir.map 2.5 10000000 rsa-blind.cir.inputs rsa-blind.cir.stats rsa-blind.cir.t1 3 1
benja     6130 51.0 45.5 1139984 935508 pts/1  R+   19:44   0:04 ./parser rsa-blind.cir.map 2.5 10000000 rsa-blind.cir.inputs rsa-blind.cir.stats rsa-blind.cir.t1 3 1
benja     6130 51.2 45.6 1140380 936172 pts/1  R+   19:44   0:04 ./parser rsa-blind.cir.map 2.5 10000000 rsa-blind.cir.inputs rsa-blind.cir.stats rsa-blind.cir.t1 3 1
benja     6130 51.3 45.6 1140776 936604 pts/1  R+   19:44   0:04 ./parser rsa-blind.cir.map 2.5 10000000 rsa-blind.cir.inputs rsa-blind.cir.stats rsa-blind.cir.t1 3 1
benja     6130 51.4 45.6 1141172 936824 pts/1  R+   19:44   0:04 ./parser rsa-blind.cir.map 2.5 10000000 rsa-blind.cir.inputs rsa-blind.cir.stats rsa-blind.cir.t1 3 1
benja     6130 51.6 45.6 1141568 937476 pts/1  R+   19:44   0:04 ./parser rsa-blind.cir.map 2.5 10000000 rsa-blind.cir.inputs rsa-blind.cir.stats rsa-blind.cir.t1 3 1
benja     6130 51.7 45.7 1141832 937912 pts/1  R+   19:44   0:04 ./parser rsa-blind.cir.map 2.5 10000000 rsa-blind.cir.inputs rsa-blind.cir.stats rsa-blind.cir.t1 3 1
benja     6130 51.8 45.7 1142360 938564 pts/1  R+   19:44   0:04 ./parser rsa-blind.cir.map 2.5 10000000 rsa-blind.cir.inputs rsa-blind.cir.stats rsa-blind.cir.t1 3 1
benja     6130 46.9 45.7 1142888 939220 pts/1  R+   19:44   0:04 ./parser rsa-blind.cir.map 2.5 10000000 rsa-blind.cir.inputs rsa-blind.cir.stats rsa-blind.cir.t1 3 1
benja     6130 47.1 45.7 1143284 939640 pts/1  R+   19:44   0:04 ./parser rsa-blind.cir.map 2.5 10000000 rsa-blind.cir.inputs rsa-blind.cir.stats rsa-blind.cir.t1 3 1
benja     6130 47.2 45.8 1143680 940300 pts/1  R+   19:44   0:04 ./parser rsa-blind.cir.map 2.5 10000000 rsa-blind.cir.inputs rsa-blind.cir.stats rsa-blind.cir.t1 3 1
benja     6130 47.5 45.8 1144208 940960 pts/1  R+   19:44   0:04 ./parser rsa-blind.cir.map 2.5 10000000 rsa-blind.cir.inputs rsa-blind.cir.stats rsa-blind.cir.t1 3 1
benja     6130 47.6 45.8 1144604 941400 pts/1  R+   19:44   0:04 ./parser rsa-blind.cir.map 2.5 10000000 rsa-blind.cir.inputs rsa-blind.cir.stats rsa-blind.cir.t1 3 1
benja     6130 47.8 45.9 1145132 942056 pts/1  R+   19:44   0:04 ./parser rsa-blind.cir.map 2.5 10000000 rsa-blind.cir.inputs rsa-blind.cir.stats rsa-blind.cir.t1 3 1
benja     6130 48.0 45.9 1145528 942708 pts/1  R+   19:44   0:04 ./parser rsa-blind.cir.map 2.5 10000000 rsa-blind.cir.inputs rsa-blind.cir.stats rsa-blind.cir.t1 3 1
benja     6130 48.2 45.9 1146056 943140 pts/1  R+   19:44   0:04 ./parser rsa-blind.cir.map 2.5 10000000 rsa-blind.cir.inputs rsa-blind.cir.stats rsa-blind.cir.t1 3 1
benja     6130 48.3 46.0 1146452 943796 pts/1  R+   19:44   0:04 ./parser rsa-blind.cir.map 2.5 10000000 rsa-blind.cir.inputs rsa-blind.cir.stats rsa-blind.cir.t1 3 1
benja     6130 48.5 46.0 1146848 944448 pts/1  R+   19:44   0:04 ./parser rsa-blind.cir.map 2.5 10000000 rsa-blind.cir.inputs rsa-blind.cir.stats rsa-blind.cir.t1 3 1
benja     6130 48.6 46.0 1147376 944884 pts/1  R+   19:44   0:04 ./parser rsa-blind.cir.map 2.5 10000000 rsa-blind.cir.inputs rsa-blind.cir.stats rsa-blind.cir.t1 3 1
benja     6130 48.8 46.0 1147772 945540 pts/1  R+   19:44   0:04 ./parser rsa-blind.cir.map 2.5 10000000 rsa-blind.cir.inputs rsa-blind.cir.stats rsa-blind.cir.t1 3 1
benja     6130 49.0 46.1 1148300 946204 pts/1  R+   19:44   0:04 ./parser rsa-blind.cir.map 2.5 10000000 rsa-blind.cir.inputs rsa-blind.cir.stats rsa-blind.cir.t1 3 1
benja     6130 49.2 46.1 1148696 946640 pts/1  R+   19:44   0:04 ./parser rsa-blind.cir.map 2.5 10000000 rsa-blind.cir.inputs rsa-blind.cir.stats rsa-blind.cir.t1 3 1
benja     6130 49.3 46.1 1149092 947280 pts/1  R+   19:44   0:04 ./parser rsa-blind.cir.map 2.5 10000000 rsa-blind.cir.inputs rsa-blind.cir.stats rsa-blind.cir.t1 3 1
benja     6130 49.5 46.2 1149752 947936 pts/1  R+   19:44   0:04 ./parser rsa-blind.cir.map 2.5 10000000 rsa-blind.cir.inputs rsa-blind.cir.stats rsa-blind.cir.t1 3 1
benja     6130 49.6 46.2 1150016 948372 pts/1  R+   19:44   0:04 ./parser rsa-blind.cir.map 2.5 10000000 rsa-blind.cir.inputs rsa-blind.cir.stats rsa-blind.cir.t1 3 1
benja     6130 49.8 46.2 1150544 949028 pts/1  R+   19:44   0:04 ./parser rsa-blind.cir.map 2.5 10000000 rsa-blind.cir.inputs rsa-blind.cir.stats rsa-blind.cir.t1 3 1
benja     6130 50.0 46.2 1150676 949248 pts/1  R+   19:44   0:05 ./parser rsa-blind.cir.map 2.5 10000000 rsa-blind.cir.inputs rsa-blind.cir.stats rsa-blind.cir.t1 3 1
benja     6130 50.2 46.2 1150676 949248 pts/1  R+   19:44   0:05 ./parser rsa-blind.cir.map 2.5 10000000 rsa-blind.cir.inputs rsa-blind.cir.stats rsa-blind.cir.t1 3 1
benja     6130 50.3 46.4 1150676 952284 pts/1  R+   19:44   0:05 ./parser rsa-blind.cir.map 2.5 10000000 rsa-blind.cir.inputs rsa-blind.cir.stats rsa-blind.cir.t1 3 1
benja     6130 50.4 46.2 1150676 948708 pts/1  R+   19:44   0:05 ./parser rsa-blind.cir.map 2.5 10000000 rsa-blind.cir.inputs rsa-blind.cir.stats rsa-blind.cir.t1 3 1
benja     6130 50.9 27.1 755212 556244 pts/1   R+   19:44   0:05 ./parser rsa-blind.cir.map 2.5 10000000 rsa-blind.cir.inputs rsa-blind.cir.stats rsa-blind.cir.t1 3 1
benja     6130 51.0 27.6 774412 566900 pts/1   R+   19:44   0:05 ./parser rsa-blind.cir.map 2.5 10000000 rsa-blind.cir.inputs rsa-blind.cir.stats rsa-blind.cir.t1 3 1
benja     6130 51.3 28.1 774412 577988 pts/1   R+   19:44   0:05 ./parser rsa-blind.cir.map 2.5 10000000 rsa-blind.cir.inputs rsa-blind.cir.stats rsa-blind.cir.t1 3 1
benja     6130 51.4 28.4 800012 583132 pts/1   R+   19:44   0:05 ./parser rsa-blind.cir.map 2.5 10000000 rsa-blind.cir.inputs rsa-blind.cir.stats rsa-blind.cir.t1 3 1
benja     6130 51.4 28.7 800012 589468 pts/1   R+   19:44   0:05 ./parser rsa-blind.cir.map 2.5 10000000 rsa-blind.cir.inputs rsa-blind.cir.stats rsa-blind.cir.t1 3 1
benja     6130 51.6 29.0 800012 595012 pts/1   R+   19:44   0:05 ./parser rsa-blind.cir.map 2.5 10000000 rsa-blind.cir.inputs rsa-blind.cir.stats rsa-blind.cir.t1 3 1
benja     6130 51.9 29.6 851212 608732 pts/1   R+   19:44   0:05 ./parser rsa-blind.cir.map 2.5 10000000 rsa-blind.cir.inputs rsa-blind.cir.stats rsa-blind.cir.t1 3 1
benja     6130 52.0 29.9 851212 614012 pts/1   R+   19:44   0:05 ./parser rsa-blind.cir.map 2.5 10000000 rsa-blind.cir.inputs rsa-blind.cir.stats rsa-blind.cir.t1 3 1
benja     6130 52.3 30.3 851212 622988 pts/1   R+   19:44   0:05 ./parser rsa-blind.cir.map 2.5 10000000 rsa-blind.cir.inputs rsa-blind.cir.stats rsa-blind.cir.t1 3 1
benja     6130 47.6 30.4 851212 625364 pts/1   R+   19:44   0:05 ./parser rsa-blind.cir.map 2.5 10000000 rsa-blind.cir.inputs rsa-blind.cir.stats rsa-blind.cir.t1 3 1
benja     6130 47.7 30.4 851212 625364 pts/1   D+   19:44   0:05 ./parser rsa-blind.cir.map 2.5 10000000 rsa-blind.cir.inputs rsa-blind.cir.stats rsa-blind.cir.t1 3 1
benja     6130 47.7 30.4 851212 625364 pts/1   D+   19:44   0:05 ./parser rsa-blind.cir.map 2.5 10000000 rsa-blind.cir.inputs rsa-blind.cir.stats rsa-blind.cir.t1 3 1
benja     6130 47.7 30.4 851212 625364 pts/1   D+   19:44   0:05 ./parser rsa-blind.cir.map 2.5 10000000 rsa-blind.cir.inputs rsa-blind.cir.stats rsa-blind.cir.t1 3 1
benja     6130 47.7 30.4 851212 625364 pts/1   D+   19:44   0:05 ./parser rsa-blind.cir.map 2.5 10000000 rsa-blind.cir.inputs rsa-blind.cir.stats rsa-blind.cir.t1 3 1
benja     6130 47.7 30.4 851212 625364 pts/1   D+   19:44   0:05 ./parser rsa-blind.cir.map 2.5 10000000 rsa-blind.cir.inputs rsa-blind.cir.stats rsa-blind.cir.t1 3 1
benja     6130 47.7 30.4 851212 625364 pts/1   D+   19:44   0:05 ./parser rsa-blind.cir.map 2.5 10000000 rsa-blind.cir.inputs rsa-blind.cir.stats rsa-blind.cir.t1 3 1
benja     6130 47.7 30.4 851212 625364 pts/1   D+   19:44   0:05 ./parser rsa-blind.cir.map 2.5 10000000 rsa-blind.cir.inputs rsa-blind.cir.stats rsa-blind.cir.t1 3 1
benja     6130 47.7 30.4 851212 625364 pts/1   D+   19:44   0:05 ./parser rsa-blind.cir.map 2.5 10000000 rsa-blind.cir.inputs rsa-blind.cir.stats rsa-blind.cir.t1 3 1
benja     6130 47.7 30.4 851212 625364 pts/1   D+   19:44   0:05 ./parser rsa-blind.cir.map 2.5 10000000 rsa-blind.cir.inputs rsa-blind.cir.stats rsa-blind.cir.t1 3 1
benja     6130 47.7 30.4 851212 625364 pts/1   D+   19:44   0:05 ./parser rsa-blind.cir.map 2.5 10000000 rsa-blind.cir.inputs rsa-blind.cir.stats rsa-blind.cir.t1 3 1
benja     6130 47.7 30.4 851212 625364 pts/1   D+   19:44   0:05 ./parser rsa-blind.cir.map 2.5 10000000 rsa-blind.cir.inputs rsa-blind.cir.stats rsa-blind.cir.t1 3 1
benja     6130 47.7 30.4 851212 625364 pts/1   D+   19:44   0:05 ./parser rsa-blind.cir.map 2.5 10000000 rsa-blind.cir.inputs rsa-blind.cir.stats rsa-blind.cir.t1 3 1
benja     6130 47.7 30.4 851212 625364 pts/1   D+   19:44   0:05 ./parser rsa-blind.cir.map 2.5 10000000 rsa-blind.cir.inputs rsa-blind.cir.stats rsa-blind.cir.t1 3 1
benja     6130 47.7 30.4 851212 625364 pts/1   D+   19:44   0:05 ./parser rsa-blind.cir.map 2.5 10000000 rsa-blind.cir.inputs rsa-blind.cir.stats rsa-blind.cir.t1 3 1
benja     6130 47.7 30.4 851212 625364 pts/1   D+   19:44   0:05 ./parser rsa-blind.cir.map 2.5 10000000 rsa-blind.cir.inputs rsa-blind.cir.stats rsa-blind.cir.t1 3 1
benja     6130 47.7 30.4 851212 625364 pts/1   D+   19:44   0:05 ./parser rsa-blind.cir.map 2.5 10000000 rsa-blind.cir.inputs rsa-blind.cir.stats rsa-blind.cir.t1 3 1
benja     6130 47.7 30.4 851212 625364 pts/1   D+   19:44   0:05 ./parser rsa-blind.cir.map 2.5 10000000 rsa-blind.cir.inputs rsa-blind.cir.stats rsa-blind.cir.t1 3 1
benja     6130 47.7 30.4 851212 625364 pts/1   D+   19:44   0:05 ./parser rsa-blind.cir.map 2.5 10000000 rsa-blind.cir.inputs rsa-blind.cir.stats rsa-blind.cir.t1 3 1
benja     6130 47.7 30.4 851212 625364 pts/1   D+   19:44   0:05 ./parser rsa-blind.cir.map 2.5 10000000 rsa-blind.cir.inputs rsa-blind.cir.stats rsa-blind.cir.t1 3 1
benja     6130 47.7 30.4 851212 625364 pts/1   D+   19:44   0:05 ./parser rsa-blind.cir.map 2.5 10000000 rsa-blind.cir.inputs rsa-blind.cir.stats rsa-blind.cir.t1 3 1
benja     6130 47.7 30.4 851212 625364 pts/1   D+   19:44   0:05 ./parser rsa-blind.cir.map 2.5 10000000 rsa-blind.cir.inputs rsa-blind.cir.stats rsa-blind.cir.t1 3 1
benja     6130 47.7 30.4 851212 625364 pts/1   D+   19:44   0:05 ./parser rsa-blind.cir.map 2.5 10000000 rsa-blind.cir.inputs rsa-blind.cir.stats rsa-blind.cir.t1 3 1
benja     6130 47.7 30.4 851212 625364 pts/1   D+   19:44   0:05 ./parser rsa-blind.cir.map 2.5 10000000 rsa-blind.cir.inputs rsa-blind.cir.stats rsa-blind.cir.t1 3 1
benja     6130 47.7 30.4 851212 625364 pts/1   D+   19:44   0:05 ./parser rsa-blind.cir.map 2.5 10000000 rsa-blind.cir.inputs rsa-blind.cir.stats rsa-blind.cir.t1 3 1
benja     6130 47.7 30.4 851212 625364 pts/1   D+   19:44   0:05 ./parser rsa-blind.cir.map 2.5 10000000 rsa-blind.cir.inputs rsa-blind.cir.stats rsa-blind.cir.t1 3 1
benja     6130 47.7 30.4 851212 625364 pts/1   D+   19:44   0:05 ./parser rsa-blind.cir.map 2.5 10000000 rsa-blind.cir.inputs rsa-blind.cir.stats rsa-blind.cir.t1 3 1
benja     6130 47.7 30.4 851212 625364 pts/1   D+   19:44   0:05 ./parser rsa-blind.cir.map 2.5 10000000 rsa-blind.cir.inputs rsa-blind.cir.stats rsa-blind.cir.t1 3 1
benja     6130 47.7 30.4 851212 625364 pts/1   D+   19:44   0:05 ./parser rsa-blind.cir.map 2.5 10000000 rsa-blind.cir.inputs rsa-blind.cir.stats rsa-blind.cir.t1 3 1
benja     6130 47.8 30.4 851212 625364 pts/1   R+   19:44   0:05 ./parser rsa-blind.cir.map 2.5 10000000 rsa-blind.cir.inputs rsa-blind.cir.stats rsa-blind.cir.t1 3 1
benja     6130 47.9 30.4 851212 625364 pts/1   R+   19:44   0:05 ./parser rsa-blind.cir.map 2.5 10000000 rsa-blind.cir.inputs rsa-blind.cir.stats rsa-blind.cir.t1 3 1
benja     6130 48.0 30.4 851212 625364 pts/1   D+   19:44   0:05 ./parser rsa-blind.cir.map 2.5 10000000 rsa-blind.cir.inputs rsa-blind.cir.stats rsa-blind.cir.t1 3 1
benja     6130 48.0 30.4 851212 625364 pts/1   D+   19:44   0:05 ./parser rsa-blind.cir.map 2.5 10000000 rsa-blind.cir.inputs rsa-blind.cir.stats rsa-blind.cir.t1 3 1
benja     6130 48.0 30.4 851212 625364 pts/1   D+   19:44   0:05 ./parser rsa-blind.cir.map 2.5 10000000 rsa-blind.cir.inputs rsa-blind.cir.stats rsa-blind.cir.t1 3 1
benja     6130 48.0 30.4 851212 625364 pts/1   D+   19:44   0:05 ./parser rsa-blind.cir.map 2.5 10000000 rsa-blind.cir.inputs rsa-blind.cir.stats rsa-blind.cir.t1 3 1
benja     6130 48.0 30.4 851212 625364 pts/1   D+   19:44   0:05 ./parser rsa-blind.cir.map 2.5 10000000 rsa-blind.cir.inputs rsa-blind.cir.stats rsa-blind.cir.t1 3 1
benja     6130 48.0 30.4 851212 625364 pts/1   D+   19:44   0:05 ./parser rsa-blind.cir.map 2.5 10000000 rsa-blind.cir.inputs rsa-blind.cir.stats rsa-blind.cir.t1 3 1
benja     6130 48.0 30.4 851212 625364 pts/1   D+   19:44   0:05 ./parser rsa-blind.cir.map 2.5 10000000 rsa-blind.cir.inputs rsa-blind.cir.stats rsa-blind.cir.t1 3 1
benja     6130 48.0 30.4 851212 625364 pts/1   D+   19:44   0:05 ./parser rsa-blind.cir.map 2.5 10000000 rsa-blind.cir.inputs rsa-blind.cir.stats rsa-blind.cir.t1 3 1
benja     6130 48.0 30.4 851212 625364 pts/1   D+   19:44   0:05 ./parser rsa-blind.cir.map 2.5 10000000 rsa-blind.cir.inputs rsa-blind.cir.stats rsa-blind.cir.t1 3 1
benja     6130 48.0 30.4 851212 625364 pts/1   D+   19:44   0:05 ./parser rsa-blind.cir.map 2.5 10000000 rsa-blind.cir.inputs rsa-blind.cir.stats rsa-blind.cir.t1 3 1
benja     6130 48.0 30.4 851212 625364 pts/1   D+   19:44   0:05 ./parser rsa-blind.cir.map 2.5 10000000 rsa-blind.cir.inputs rsa-blind.cir.stats rsa-blind.cir.t1 3 1
benja     6130 48.0 30.4 851212 625364 pts/1   D+   19:44   0:05 ./parser rsa-blind.cir.map 2.5 10000000 rsa-blind.cir.inputs rsa-blind.cir.stats rsa-blind.cir.t1 3 1
benja     6130 48.0 30.4 851212 625364 pts/1   D+   19:44   0:05 ./parser rsa-blind.cir.map 2.5 10000000 rsa-blind.cir.inputs rsa-blind.cir.stats rsa-blind.cir.t1 3 1
benja     6130 48.0 30.4 851212 625364 pts/1   D+   19:44   0:05 ./parser rsa-blind.cir.map 2.5 10000000 rsa-blind.cir.inputs rsa-blind.cir.stats rsa-blind.cir.t1 3 1
benja     6130 48.0 30.4 851212 625364 pts/1   D+   19:44   0:05 ./parser rsa-blind.cir.map 2.5 10000000 rsa-blind.cir.inputs rsa-blind.cir.stats rsa-blind.cir.t1 3 1
benja     6130 48.0 30.4 851212 625364 pts/1   D+   19:44   0:05 ./parser rsa-blind.cir.map 2.5 10000000 rsa-blind.cir.inputs rsa-blind.cir.stats rsa-blind.cir.t1 3 1
benja     6130 48.0 30.4 851212 625364 pts/1   D+   19:44   0:05 ./parser rsa-blind.cir.map 2.5 10000000 rsa-blind.cir.inputs rsa-blind.cir.stats rsa-blind.cir.t1 3 1
benja     6130 48.0 30.4 851212 625364 pts/1   D+   19:44   0:05 ./parser rsa-blind.cir.map 2.5 10000000 rsa-blind.cir.inputs rsa-blind.cir.stats rsa-blind.cir.t1 3 1
benja     6130 48.0 30.4 851212 625364 pts/1   D+   19:44   0:05 ./parser rsa-blind.cir.map 2.5 10000000 rsa-blind.cir.inputs rsa-blind.cir.stats rsa-blind.cir.t1 3 1
benja     6130 48.0 30.4 851212 625364 pts/1   D+   19:44   0:05 ./parser rsa-blind.cir.map 2.5 10000000 rsa-blind.cir.inputs rsa-blind.cir.stats rsa-blind.cir.t1 3 1
benja     6130 48.0 30.4 851212 625364 pts/1   D+   19:44   0:05 ./parser rsa-blind.cir.map 2.5 10000000 rsa-blind.cir.inputs rsa-blind.cir.stats rsa-blind.cir.t1 3 1
benja     6130 48.0 30.4 851212 625364 pts/1   D+   19:44   0:05 ./parser rsa-blind.cir.map 2.5 10000000 rsa-blind.cir.inputs rsa-blind.cir.stats rsa-blind.cir.t1 3 1
benja     6130 48.0 30.4 851212 625364 pts/1   D+   19:44   0:05 ./parser rsa-blind.cir.map 2.5 10000000 rsa-blind.cir.inputs rsa-blind.cir.stats rsa-blind.cir.t1 3 1
benja     6130 48.0 30.4 851212 625364 pts/1   D+   19:44   0:05 ./parser rsa-blind.cir.map 2.5 10000000 rsa-blind.cir.inputs rsa-blind.cir.stats rsa-blind.cir.t1 3 1
benja     6130 48.0 30.4 851212 625364 pts/1   D+   19:44   0:05 ./parser rsa-blind.cir.map 2.5 10000000 rsa-blind.cir.inputs rsa-blind.cir.stats rsa-blind.cir.t1 3 1
benja     6130 48.0 30.4 851212 625364 pts/1   D+   19:44   0:05 ./parser rsa-blind.cir.map 2.5 10000000 rsa-blind.cir.inputs rsa-blind.cir.stats rsa-blind.cir.t1 3 1
benja     6130 48.0 30.4 851212 625364 pts/1   D+   19:44   0:05 ./parser rsa-blind.cir.map 2.5 10000000 rsa-blind.cir.inputs rsa-blind.cir.stats rsa-blind.cir.t1 3 1
benja     6130 48.0 30.4 851212 625364 pts/1   D+   19:44   0:05 ./parser rsa-blind.cir.map 2.5 10000000 rsa-blind.cir.inputs rsa-blind.cir.stats rsa-blind.cir.t1 3 1
benja     6130 48.0 30.4 851212 625364 pts/1   D+   19:44   0:05 ./parser rsa-blind.cir.map 2.5 10000000 rsa-blind.cir.inputs rsa-blind.cir.stats rsa-blind.cir.t1 3 1
benja     6130 48.0 30.4 851212 625364 pts/1   D+   19:44   0:05 ./parser rsa-blind.cir.map 2.5 10000000 rsa-blind.cir.inputs rsa-blind.cir.stats rsa-blind.cir.t1 3 1
benja     6130 48.0 30.4 851212 625364 pts/1   D+   19:44   0:05 ./parser rsa-blind.cir.map 2.5 10000000 rsa-blind.cir.inputs rsa-blind.cir.stats rsa-blind.cir.t1 3 1
benja     6130 48.0 30.4 851212 625364 pts/1   D+   19:44   0:05 ./parser rsa-blind.cir.map 2.5 10000000 rsa-blind.cir.inputs rsa-blind.cir.stats rsa-blind.cir.t1 3 1
benja     6130 48.0 30.4 851212 625364 pts/1   D+   19:44   0:05 ./parser rsa-blind.cir.map 2.5 10000000 rsa-blind.cir.inputs rsa-blind.cir.stats rsa-blind.cir.t1 3 1
benja     6130 48.0 30.4 851212 625364 pts/1   D+   19:44   0:05 ./parser rsa-blind.cir.map 2.5 10000000 rsa-blind.cir.inputs rsa-blind.cir.stats rsa-blind.cir.t1 3 1
benja     6130 48.0 30.4 851212 625364 pts/1   D+   19:44   0:05 ./parser rsa-blind.cir.map 2.5 10000000 rsa-blind.cir.inputs rsa-blind.cir.stats rsa-blind.cir.t1 3 1
benja     6130 48.0 30.4 851212 625364 pts/1   D+   19:44   0:05 ./parser rsa-blind.cir.map 2.5 10000000 rsa-blind.cir.inputs rsa-blind.cir.stats rsa-blind.cir.t1 3 1
benja     6130 48.0 30.4 851212 625364 pts/1   D+   19:44   0:05 ./parser rsa-blind.cir.map 2.5 10000000 rsa-blind.cir.inputs rsa-blind.cir.stats rsa-blind.cir.t1 3 1
benja     6130 48.0 30.4 851212 625364 pts/1   D+   19:44   0:05 ./parser rsa-blind.cir.map 2.5 10000000 rsa-blind.cir.inputs rsa-blind.cir.stats rsa-blind.cir.t1 3 1
benja     6130 48.0 30.4 851212 625364 pts/1   D+   19:44   0:05 ./parser rsa-blind.cir.map 2.5 10000000 rsa-blind.cir.inputs rsa-blind.cir.stats rsa-blind.cir.t1 3 1
benja     6130 44.0 30.4 851212 625364 pts/1   D+   19:44   0:05 ./parser rsa-blind.cir.map 2.5 10000000 rsa-blind.cir.inputs rsa-blind.cir.stats rsa-blind.cir.t1 3 1
benja     6130 44.0 30.4 851212 625364 pts/1   D+   19:44   0:05 ./parser rsa-blind.cir.map 2.5 10000000 rsa-blind.cir.inputs rsa-blind.cir.stats rsa-blind.cir.t1 3 1
benja     6130 44.0 30.4 851212 625364 pts/1   D+   19:44   0:05 ./parser rsa-blind.cir.map 2.5 10000000 rsa-blind.cir.inputs rsa-blind.cir.stats rsa-blind.cir.t1 3 1
benja     6130 44.0 30.4 851212 625364 pts/1   D+   19:44   0:05 ./parser rsa-blind.cir.map 2.5 10000000 rsa-blind.cir.inputs rsa-blind.cir.stats rsa-blind.cir.t1 3 1
benja     6130 44.0 30.4 851212 625364 pts/1   D+   19:44   0:05 ./parser rsa-blind.cir.map 2.5 10000000 rsa-blind.cir.inputs rsa-blind.cir.stats rsa-blind.cir.t1 3 1
benja     6130 44.0 30.4 851212 625364 pts/1   D+   19:44   0:05 ./parser rsa-blind.cir.map 2.5 10000000 rsa-blind.cir.inputs rsa-blind.cir.stats rsa-blind.cir.t1 3 1
benja     6130 44.0 30.4 851212 625364 pts/1   D+   19:44   0:05 ./parser rsa-blind.cir.map 2.5 10000000 rsa-blind.cir.inputs rsa-blind.cir.stats rsa-blind.cir.t1 3 1
benja     6130 44.0 30.4 851212 625364 pts/1   R+   19:44   0:05 ./parser rsa-blind.cir.map 2.5 10000000 rsa-blind.cir.inputs rsa-blind.cir.stats rsa-blind.cir.t1 3 1
benja     6130 44.1 30.4 851212 625364 pts/1   D+   19:44   0:05 ./parser rsa-blind.cir.map 2.5 10000000 rsa-blind.cir.inputs rsa-blind.cir.stats rsa-blind.cir.t1 3 1
benja     6130 44.1 30.4 851212 625364 pts/1   D+   19:44   0:05 ./parser rsa-blind.cir.map 2.5 10000000 rsa-blind.cir.inputs rsa-blind.cir.stats rsa-blind.cir.t1 3 1
benja     6130 44.1 30.4 851212 625364 pts/1   D+   19:44   0:05 ./parser rsa-blind.cir.map 2.5 10000000 rsa-blind.cir.inputs rsa-blind.cir.stats rsa-blind.cir.t1 3 1
benja     6130 44.1 30.4 851212 625364 pts/1   D+   19:44   0:05 ./parser rsa-blind.cir.map 2.5 10000000 rsa-blind.cir.inputs rsa-blind.cir.stats rsa-blind.cir.t1 3 1
benja     6130 44.1 30.4 851212 625364 pts/1   D+   19:44   0:05 ./parser rsa-blind.cir.map 2.5 10000000 rsa-blind.cir.inputs rsa-blind.cir.stats rsa-blind.cir.t1 3 1
benja     6130 44.1 30.4 851212 625364 pts/1   D+   19:44   0:05 ./parser rsa-blind.cir.map 2.5 10000000 rsa-blind.cir.inputs rsa-blind.cir.stats rsa-blind.cir.t1 3 1
benja     6130 44.1 30.4 851212 625364 pts/1   D+   19:44   0:05 ./parser rsa-blind.cir.map 2.5 10000000 rsa-blind.cir.inputs rsa-blind.cir.stats rsa-blind.cir.t1 3 1
benja     6130 44.1 30.4 851212 625364 pts/1   D+   19:44   0:05 ./parser rsa-blind.cir.map 2.5 10000000 rsa-blind.cir.inputs rsa-blind.cir.stats rsa-blind.cir.t1 3 1
benja     6130 44.1 30.4 851212 625364 pts/1   D+   19:44   0:05 ./parser rsa-blind.cir.map 2.5 10000000 rsa-blind.cir.inputs rsa-blind.cir.stats rsa-blind.cir.t1 3 1
benja     6130 44.1 30.4 851212 625364 pts/1   D+   19:44   0:05 ./parser rsa-blind.cir.map 2.5 10000000 rsa-blind.cir.inputs rsa-blind.cir.stats rsa-blind.cir.t1 3 1
benja     6130 44.1 30.4 851212 625364 pts/1   D+   19:44   0:05 ./parser rsa-blind.cir.map 2.5 10000000 rsa-blind.cir.inputs rsa-blind.cir.stats rsa-blind.cir.t1 3 1
benja     6130 44.1 30.4 851212 625364 pts/1   D+   19:44   0:05 ./parser rsa-blind.cir.map 2.5 10000000 rsa-blind.cir.inputs rsa-blind.cir.stats rsa-blind.cir.t1 3 1
benja     6130 44.1 30.4 851212 625364 pts/1   D+   19:44   0:05 ./parser rsa-blind.cir.map 2.5 10000000 rsa-blind.cir.inputs rsa-blind.cir.stats rsa-blind.cir.t1 3 1
benja     6130 44.1 30.4 851212 625364 pts/1   D+   19:44   0:05 ./parser rsa-blind.cir.map 2.5 10000000 rsa-blind.cir.inputs rsa-blind.cir.stats rsa-blind.cir.t1 3 1
benja     6130 44.1 30.4 851212 625364 pts/1   D+   19:44   0:05 ./parser rsa-blind.cir.map 2.5 10000000 rsa-blind.cir.inputs rsa-blind.cir.stats rsa-blind.cir.t1 3 1
benja     6130 44.1 30.4 851212 625364 pts/1   D+   19:44   0:05 ./parser rsa-blind.cir.map 2.5 10000000 rsa-blind.cir.inputs rsa-blind.cir.stats rsa-blind.cir.t1 3 1
benja     6130 44.1 30.4 851212 625364 pts/1   D+   19:44   0:05 ./parser rsa-blind.cir.map 2.5 10000000 rsa-blind.cir.inputs rsa-blind.cir.stats rsa-blind.cir.t1 3 1
benja     6130 44.1 30.4 851212 625364 pts/1   D+   19:44   0:05 ./parser rsa-blind.cir.map 2.5 10000000 rsa-blind.cir.inputs rsa-blind.cir.stats rsa-blind.cir.t1 3 1
benja     6130 44.1 30.4 851212 625364 pts/1   D+   19:44   0:05 ./parser rsa-blind.cir.map 2.5 10000000 rsa-blind.cir.inputs rsa-blind.cir.stats rsa-blind.cir.t1 3 1
benja     6130 44.1 30.4 851212 625364 pts/1   D+   19:44   0:05 ./parser rsa-blind.cir.map 2.5 10000000 rsa-blind.cir.inputs rsa-blind.cir.stats rsa-blind.cir.t1 3 1
benja     6130 44.1 30.4 851212 625364 pts/1   D+   19:44   0:05 ./parser rsa-blind.cir.map 2.5 10000000 rsa-blind.cir.inputs rsa-blind.cir.stats rsa-blind.cir.t1 3 1
benja     6130 44.1 30.4 851212 625364 pts/1   D+   19:44   0:05 ./parser rsa-blind.cir.map 2.5 10000000 rsa-blind.cir.inputs rsa-blind.cir.stats rsa-blind.cir.t1 3 1
benja     6130 44.1 30.4 851212 625364 pts/1   D+   19:44   0:05 ./parser rsa-blind.cir.map 2.5 10000000 rsa-blind.cir.inputs rsa-blind.cir.stats rsa-blind.cir.t1 3 1
benja     6130 44.1 30.4 851212 625364 pts/1   D+   19:44   0:05 ./parser rsa-blind.cir.map 2.5 10000000 rsa-blind.cir.inputs rsa-blind.cir.stats rsa-blind.cir.t1 3 1
benja     6130 44.1 30.4 851212 625364 pts/1   D+   19:44   0:05 ./parser rsa-blind.cir.map 2.5 10000000 rsa-blind.cir.inputs rsa-blind.cir.stats rsa-blind.cir.t1 3 1
benja     6130 44.1 30.4 851212 625364 pts/1   D+   19:44   0:05 ./parser rsa-blind.cir.map 2.5 10000000 rsa-blind.cir.inputs rsa-blind.cir.stats rsa-blind.cir.t1 3 1
benja     6130 44.1 30.4 851212 625364 pts/1   D+   19:44   0:05 ./parser rsa-blind.cir.map 2.5 10000000 rsa-blind.cir.inputs rsa-blind.cir.stats rsa-blind.cir.t1 3 1
benja     6130 44.1 30.4 851212 625364 pts/1   D+   19:44   0:05 ./parser rsa-blind.cir.map 2.5 10000000 rsa-blind.cir.inputs rsa-blind.cir.stats rsa-blind.cir.t1 3 1
benja     6130 44.1 30.4 851212 625364 pts/1   D+   19:44   0:05 ./parser rsa-blind.cir.map 2.5 10000000 rsa-blind.cir.inputs rsa-blind.cir.stats rsa-blind.cir.t1 3 1
benja     6130 44.1  0.0      0     0 pts/1    R+   19:44   0:05 [parser]
benja     6130 44.3  0.0      0     0 pts/1    R+   19:44   0:05 [parser]
