
define(bits,16384)
define(ints,eval(bits/32))





//x := y - 1431655765{32};
//x := (x & 858993459{32}) +( (x >> 2) & 858993459{32});
//x := (x + (x >> 4)) & 252645135{32};
//x := x + x >> 8;
//x := x + x >> 16; 
//ret := x & 127{32};



defun pop32(y){



x := y - ((y >> 1) & 1431655765{32});
x := (x & 858993459{32}) +( (x >> 2) & 858993459{32});
x := (x + (x >> 4)) & 252645135{32};
x := x + ( x >> 8 );
x := x + (x >> 16 ); 

ret := x & 127{32};


return ret;
}


defvar a:= input.0{bits};
defvar b:= input.1{bits};


array(a,32);
array(b,32);

temp := 0{32};
l := 0{32};
for i from 0 to decr(ints) step 1
begin
	q := a[i] ^ b[i];
	x := pop32(q);
	
	l := x;	
	temp := temp + l;
end



output.0 := temp;




