
//
// Mil circuit
//

defvar alicein := input.1{32};
defvar bobin := input.0{32};





out_alice := 0{32};
out_bob := 0{32};




if alicein < bobin then 
	out_bob := alicein;
end

if alicein > bobin then 
	out_alice := bobin;
end




output.1 := out_alice;
output.0 := out_bob;
