
//
// Mil circuit
//

define(size, 16384)

defvar alicein := input.1{eval(size)};
defvar bobin := input.0{eval(size)};





out_alice := 0{1};
out_bob := 0{1};





if alicein > bobin  then 
	out_alice := 1{1};
end

if alicein < bobin  then 
	out_bob := 1{1};
end


output.1 := out_alice;
output.0 := out_bob;
