
//
// Mil circuit
//

define(size, 8192)

defvar alicein := input.1{eval(size+1)};
defvar bobin := input.0{eval(size+1)};





out_alice := 0{1};
out_bob := 0{1};




if alicein{0:eval(size-1)}  < bobin{0:eval(size-1)}  then 
	out_bob := 1{1};
end

if alicein{0:eval(size-1)} > bobin{0:eval(size-1)}  then 
	out_alice := 1{1};
end


out_alice := out_alice^alicein{size};
out_bob := out_bob^bobin{size};

output.1 := out_alice;
output.0 := out_bob;
