
//
// Mil circuit
//

define(size, 128)
define(N,eval(size))


defvar alicein := input.1{eval(size)};
defvar bobin := input.0{eval(size)};






out := 0{eval(size*2)};

x:=0{eval(size*2)};
y:=0{eval(size*2)};



x{0:eval(size-1)} := alicein;
y{0:eval(size-1)} := bobin;



		
		//var TByte reg2,res,multiplicand, one,carry,tres, mone;



reg2 := 0{eval(size*2)};
res :=  0{eval(size*2)};
multiplicand := 0{eval(size*2)};
one := 0{eval(size*2)};

t := 0{eval(size*2)};
carry := 0{eval(size*2)};
tres := 0{eval(size*2)};
mone := 0{eval(size*2)};

largeR := 0{eval(size*2+1)};
largeA := 0{eval(size*2+1)};
largeB := 0{eval(size*2+1)};

		res := x;

		reg2 := y;

		multiplicand := y;
		multiplicand := multiplicand << N;
		one := 1;
		carry := 0;	
	
		mone := 1{eval(size*2)};
		mone := mone << eval(N*2-1);	

		for i from 0 to decr(N) step 1
		begin
			//t := 1{eval(size*2)} & res; 
			if res{0} == 1{1}
			then
				carry := res{eval(size*2-1)} & multiplicand{eval(size*2-1)};
				//res := res + multiplicand;

				largeA{0:eval(size*2-1)} := res;
				largeB{0:eval(size*2-1)} := multiplicand;
				largeR := largeA + largeB;
				carry{0} := largeR{eval(size*2)};
				res := largeR{0:eval(size*2-1)};	
			else
			
				carry := 0{1};
			end
			

			tres := res >> 1;
			
			if carry{0} == one{0}
			then
				tres := tres | mone;
				carry := 0{1};
			end

			if (res{0}) == 1{1}
			then
				carry := 0{1};
			end

			res := tres;
		end
		//res = multiplicand;
	

           	//output.alice = mone;
           	//out := res;


//tres := tres | 15{8};
output.1 := res;
output.0 := carry;
