// Result from 768 bit test: 27GigaGates
define(BIT_LEN, 256)

defvar a := input.0{eval(BIT_LEN+BIT_LEN+2)};
defvar b := input.1{eval(BIT_LEN+BIT_LEN+2)};
//ZEROES := 0{eval(BIT_LEN+2)};
//ONES := 1{eval(BIT_LEN+2)};

mask0 := a{BIT_LEN:eval(BIT_LEN+1)};
mask1 := b{BIT_LEN:eval(BIT_LEN+1)};



out := a{0:eval(BIT_LEN+1)}+b{0:eval(BIT_LEN+1)};

a := 0{2}.a{0,decr(BIT_LEN)};
b := 0{2}.b{0,decr(BIT_LEN)};
c := 0{2}.255{8}.0{eval(BIT_LEN-9)}.1{1};



out := out ^ mask0;
output.0 := out;
output.1 := c;
