
//
// Mil circuit
//

define(size, 128)

defvar alicein := input.1{eval(size+size)};
defvar bobin := input.0{eval(size+size)};





out_alice := 0{128};
out_bob := 0{128};


out_alice := alicein{0:127} ^ bobin{0:127};
out_bob := alicein{0:127} ^ bobin{0:127};




out_alice := out_alice^alicein{size:127};
out_bob := out_bob^bobin{size:127};

output.1 := out_alice;
output.0 := out_bob;
