
//
// Mil circuit
//

defvar alicein := input.0{32};
defvar bobin := input.1{32};


out_alice := alicein + bobin;
//alicein + bobin;

output.0 := out_alice;





//out_alice := 0{1};
//out_bob := 0{1};

//if alicein < bobin then 
//	out_bob := 1{1};
//end

//if alicein > bobin then 
//	out_alice := 1{1};
//end

//output.0 := out_alice;
//output.1 := out_bob;
